<?xml version="1.0" encoding="utf-8"?>
<!-- Generator: Adobe Illustrator 19.0.0, SVG Export Plug-In . SVG Version: 6.00 Build 0)  -->
<svg version="1.1" id="Layer_1" xmlns="http://www.w3.org/2000/svg" xmlns:xlink="http://www.w3.org/1999/xlink" x="0px" y="0px"
	 viewBox="162 -88.8 936.2 968.8" style="enable-background:new 162 -88.8 936.2 968.8;" xml:space="preserve">
<style type="text/css">
	.st0{display:none;}
	.st1{opacity:0.28;}
	.st2{fill:none;stroke:#6D6E71;stroke-width:0.2;stroke-miterlimit:10;}
	.st3{fill:none;stroke:#BCBEC0;stroke-width:0.2;stroke-miterlimit:10;}
	.st4{fill:#939598;}
	.st5{fill:#57585B;}
	.st6{display:inline;fill:none;}
</style>
<g id="Layer_4" class="st0">
	
		<image style="display:inline;overflow:visible;enable-background:new    ;" width="1366" height="768" xlink:href="FD15B7F6.jpeg"  transform="matrix(1 0 0 1 2501.0293 177.7081)">
	</image>
</g>
<g id="Layer_6" class="st1">
	<g>
		<path class="st2" d="M173.2,347.9"/>
		<line class="st2" x1="173.2" y1="347.9" x2="179.2" y2="273.7"/>
		<line class="st2" x1="185.2" y1="529.7" x2="173.2" y2="347.9"/>
		<polygon class="st2" points="173.2,347.9 185.2,529.7 188.8,440 		"/>
		<polygon class="st2" points="173.2,347.9 188.8,440 224.6,394.5 		"/>
		<polygon class="st2" points="206.8,238.9 179.2,273.7 228.2,278.4 		"/>
		<polygon class="st2" points="179.2,273.7 173.2,347.9 228.2,278.4 		"/>
		<polygon class="st2" points="173.2,347.9 224.6,394.5 228.2,278.4 		"/>
		<polygon class="st2" points="188.8,440 185.2,529.7 229.4,510.5 		"/>
		<polygon class="st2" points="229.4,510.5 185.2,529.7 233,588.4 		"/>
		<path class="st2" d="M248.6,122.9"/>
		<line class="st2" x1="179.2" y1="273.7" x2="206.8" y2="238.9"/>
		<line class="st2" x1="242.6" y1="158.8" x2="248.6" y2="122.9"/>
		<path class="st2" d="M206.8,238.9"/>
		<path class="st2" d="M248.6,122.9"/>
		<path class="st2" d="M179.2,273.7"/>
		<path class="st2" d="M185.2,529.7"/>
		<path class="st2" d="M249.8,644.5"/>
		<polyline class="st2" points="249.8,644.5 233,588.4 185.2,529.7 		"/>
		<polygon class="st2" points="233,588.4 249.8,644.5 262.9,644.5 		"/>
		<polygon class="st2" points="248.6,122.9 242.6,158.8 297.7,150.4 		"/>
		<polygon class="st2" points="229.4,510.5 233,588.4 300,485.5 		"/>
		<polygon class="st2" points="224.6,394.5 188.8,440 300,485.5 		"/>
		<polygon class="st2" points="188.8,440 229.4,510.5 300,485.5 		"/>
		<polygon class="st2" points="248.6,122.9 297.7,150.4 302.4,94.1 		"/>
		<polyline class="st2" points="206.8,238.9 330,230.5 242.6,158.8 		"/>
		<polygon class="st2" points="297.7,150.4 242.6,158.8 330,230.5 		"/>
		<polygon class="st2" points="206.8,238.9 228.2,278.4 330,230.5 		"/>
		<line class="st2" x1="248.6" y1="122.9" x2="342" y2="16.4"/>
		<polygon class="st2" points="248.6,122.9 302.4,94.1 342,16.4 		"/>
		<polygon class="st2" points="224.6,394.5 300,485.5 351.4,349.1 		"/>
		<polygon class="st2" points="228.2,278.4 224.6,394.5 351.4,349.1 		"/>
		<polygon class="st2" points="330,230.5 228.2,278.4 351.4,349.1 		"/>
		<line class="st2" x1="353.8" y1="737.9" x2="249.8" y2="644.5"/>
		<polygon class="st2" points="262.9,644.5 249.8,644.5 353.8,737.9 		"/>
		<polygon class="st2" points="233,588.4 262.9,644.5 362.2,595.4 		"/>
		<polygon class="st2" points="300,485.5 233,588.4 362.2,595.4 		"/>
		<polygon class="st2" points="262.9,644.5 353.8,737.9 400.5,690 		"/>
		<polygon class="st2" points="362.2,595.4 262.9,644.5 400.5,690 		"/>
		<polygon class="st2" points="400.5,690 353.8,737.9 416.1,748.7 		"/>
		<polygon class="st2" points="416.1,748.7 353.8,737.9 420.9,800.1 		"/>
		<path class="st2" d="M420.9,800.1"/>
		<line class="st2" x1="420.9" y1="800.1" x2="353.8" y2="737.9"/>
		<polygon class="st2" points="351.4,349.1 300,485.5 424.5,398.1 		"/>
		<polygon class="st2" points="297.7,150.4 330,230.5 424.5,107.3 		"/>
		<polygon class="st2" points="302.4,94.1 297.7,150.4 424.5,107.3 		"/>
		<polygon class="st2" points="342,16.4 302.4,94.1 424.5,107.3 		"/>
		<polygon class="st2" points="423.3,-2.7 342,16.4 424.5,107.3 		"/>
		<polygon class="st2" points="330,230.5 351.4,349.1 449.6,291.6 		"/>
		<polygon class="st2" points="351.4,349.1 424.5,398.1 449.6,291.6 		"/>
		<polyline class="st2" points="449.6,291.6 424.5,398.1 450.8,469.9 		"/>
		<polygon class="st2" points="424.5,398.1 300,485.5 450.8,469.9 		"/>
		<polygon class="st2" points="300,485.5 362.2,595.4 454.4,490.3 		"/>
		<polygon class="st2" points="450.8,469.9 300,485.5 454.4,490.3 		"/>
		<line class="st2" x1="342" y1="16.4" x2="461.6" y2="-21.9"/>
		<polygon class="st2" points="342,16.4 423.3,-2.7 461.6,-21.9 		"/>
		<polygon class="st2" points="424.5,107.3 330,230.5 466.4,246.1 		"/>
		<polygon class="st2" points="330,230.5 449.6,291.6 466.4,246.1 		"/>
		<polygon class="st2" points="423.3,-2.7 424.5,107.3 468.8,36.8 		"/>
		<polygon class="st2" points="461.6,-21.9 423.3,-2.7 468.8,36.8 		"/>
		<polygon class="st2" points="400.5,690 416.1,748.7 490.2,697.2 		"/>
		<polygon class="st2" points="424.5,107.3 466.4,246.1 507,222.3 		"/>
		<polygon class="st2" points="466.4,246.1 449.6,291.6 507,222.3 		"/>
		<polygon class="st2" points="416.1,748.7 420.9,800.1 514.2,822.8 		"/>
		<polygon class="st2" points="490.2,697.2 416.1,748.7 514.2,822.8 		"/>
		<line class="st2" x1="514.2" y1="822.8" x2="420.9" y2="800.1"/>
		<polygon class="st2" points="450.8,469.9 454.4,490.3 515.4,551.2 		"/>
		<polygon class="st2" points="454.4,490.3 362.2,595.4 515.4,551.2 		"/>
		<polygon class="st2" points="362.2,595.4 400.5,690 515.4,551.2 		"/>
		<polygon class="st2" points="400.5,690 490.2,697.2 515.4,551.2 		"/>
		<polygon class="st2" points="461.6,-21.9 468.8,36.8 528.5,-58.9 		"/>
		<line class="st2" x1="461.6" y1="-21.9" x2="528.5" y2="-58.9"/>
		<polyline class="st2" points="450.8,469.9 515.4,551.2 550.1,562 		"/>
		<polygon class="st2" points="515.4,551.2 490.2,697.2 550.1,562 		"/>
		<path class="st2" d="M576.4,191"/>
		<path class="st2" d="M550.1,562"/>
		<path class="st2" d="M450.8,469.9"/>
		<path class="st2" d="M450.8,469.9"/>
		<path class="st2" d="M449.6,291.6"/>
		<path class="st2" d="M576.4,191"/>
		<polyline class="st2" points="576.4,191 507,222.3 449.6,291.6 		"/>
		<polygon class="st2" points="468.8,36.8 424.5,107.3 576.4,191 		"/>
		<polygon class="st2" points="424.5,107.3 507,222.3 576.4,191 		"/>
		<polygon class="st2" points="490.2,697.2 514.2,822.8 587.2,751.1 		"/>
		<polygon class="st2" points="514.2,822.8 577.6,792.9 587.2,751.1 		"/>
		<polygon class="st2" points="468.8,36.8 576.4,191 592,55.8 		"/>
		<polygon class="st2" points="528.5,-58.9 468.8,36.8 592,55.8 		"/>
		<polygon class="st2" points="550.1,562 490.2,697.2 598,593 		"/>
		<polygon class="st2" points="490.2,697.2 587.2,751.1 598,593 		"/>
		<polygon class="st2" points="592,55.8 576.4,191 611.2,178 		"/>
		<polygon class="st2" points="590.8,-52.9 528.5,-58.9 614.6,-15.9 		"/>
		<polygon class="st2" points="528.5,-58.9 592,55.8 614.6,-15.9 		"/>
		<polygon class="st2" points="592,55.8 611.2,178 648.2,182.8 		"/>
		<polygon class="st2" points="611.2,178 576.4,191 648.2,182.8 		"/>
		<polygon class="st2" points="598,593 587.2,751.1 648.2,626.7 		"/>
		<polygon class="st2" points="587.2,751.1 577.6,792.9 649.4,718.8 		"/>
		<polygon class="st2" points="648.2,626.7 587.2,751.1 649.4,718.8 		"/>
		<polygon class="st2" points="590.8,-52.9 614.6,-15.9 662.5,-58.9 		"/>
		<line class="st2" x1="528.5" y1="-58.9" x2="662.5" y2="-58.9"/>
		<polygon class="st2" points="528.5,-58.9 590.8,-52.9 662.5,-58.9 		"/>
		<polygon class="st2" points="592,55.8 648.2,182.8 663.7,21.2 		"/>
		<polygon class="st2" points="614.6,-15.9 592,55.8 663.7,21.2 		"/>
		<polygon class="st2" points="662.5,-58.9 614.6,-15.9 663.7,21.2 		"/>
		<polygon class="st2" points="649.4,718.8 577.6,792.9 684.1,843.2 		"/>
		<polygon class="st2" points="577.6,792.9 514.2,822.8 684.1,843.2 		"/>
		<line class="st2" x1="684.1" y1="843.2" x2="514.2" y2="822.8"/>
		<polyline class="st2" points="598,593 648.2,626.7 710.4,581.2 		"/>
		<polygon class="st2" points="649.4,718.8 684.1,843.2 711.6,827.6 		"/>
		<polygon class="st2" points="649.4,718.8 711.6,827.6 716.4,710.4 		"/>
		<polygon class="st2" points="648.2,626.7 649.4,718.8 716.4,710.4 		"/>
		<polygon class="st2" points="662.5,-58.9 663.7,21.2 724.8,-32.7 		"/>
		<path class="st2" d="M728.4,556"/>
		<line class="st2" x1="550.1" y1="562" x2="598" y2="593"/>
		<line class="st2" x1="710.4" y1="581.2" x2="728.4" y2="556"/>
		<path class="st2" d="M598,593"/>
		<path class="st2" d="M728.4,556"/>
		<path class="st2" d="M550.1,562"/>
		<path class="st2" d="M576.4,191"/>
		<path class="st2" d="M728.4,556"/>
		<line class="st2" x1="648.2" y1="182.8" x2="576.4" y2="191"/>
		<polygon class="st2" points="663.7,21.2 648.2,182.8 732,197.1 		"/>
		<polygon class="st2" points="728.4,556 710.4,581.2 754.6,657.7 		"/>
		<polygon class="st2" points="710.4,581.2 648.2,626.7 754.6,657.7 		"/>
		<polygon class="st2" points="648.2,626.7 716.4,710.4 754.6,657.7 		"/>
		<polygon class="st2" points="728.4,556 754.6,657.7 765.4,541.7 		"/>
		<polygon class="st2" points="732,197.1 648.2,182.8 784.6,247.3 		"/>
		<polygon class="st2" points="716.4,710.4 711.6,827.6 787,814.5 		"/>
		<polygon class="st2" points="711.6,827.6 684.1,843.2 787,814.5 		"/>
		<polyline class="st2" points="662.5,-58.9 724.8,-32.7 787,-52.9 		"/>
		<polygon class="st2" points="728.4,556 765.4,541.7 819.3,475.9 		"/>
		<polygon class="st2" points="787,-52.9 724.8,-32.7 822.9,96.5 		"/>
		<polygon class="st2" points="724.8,-32.7 663.7,21.2 822.9,96.5 		"/>
		<polygon class="st2" points="663.7,21.2 732,197.1 822.9,96.5 		"/>
		<polygon class="st2" points="825.3,290.4 784.6,247.3 833.7,355.1 		"/>
		<path class="st2" d="M648.2,182.8"/>
		<path class="st2" d="M833.7,355.1"/>
		<path class="st2" d="M728.4,556"/>
		<polyline class="st2" points="833.7,355.1 784.6,247.3 648.2,182.8 		"/>
		<polyline class="st2" points="728.4,556 819.3,475.9 833.7,418.4 		"/>
		<line class="st2" x1="833.7" y1="418.4" x2="833.7" y2="355.1"/>
		<path class="st2" d="M728.4,556"/>
		<polygon class="st2" points="754.6,657.7 716.4,710.4 833.7,722.4 		"/>
		<polygon class="st2" points="716.4,710.4 787,814.5 833.7,722.4 		"/>
		<polygon class="st2" points="732,197.1 784.6,247.3 840.8,161.2 		"/>
		<polygon class="st2" points="822.9,96.5 732,197.1 840.8,161.2 		"/>
		<polygon class="st2" points="765.4,541.7 754.6,657.7 842,595.4 		"/>
		<polygon class="st2" points="833.7,722.4 787,814.5 856.4,777.3 		"/>
		<polygon class="st2" points="833.7,355.1 833.7,418.4 857.6,382.5 		"/>
		<polygon class="st2" points="819.3,475.9 765.4,541.7 860,574 		"/>
		<polygon class="st2" points="765.4,541.7 842,595.4 860,574 		"/>
		<polygon class="st2" points="787,-52.9 822.9,96.5 867.2,5.6 		"/>
		<polygon class="st2" points="754.6,657.7 833.7,722.4 867.2,685.2 		"/>
		<polygon class="st2" points="842,595.4 754.6,657.7 867.2,685.2 		"/>
		<polygon class="st2" points="833.7,418.4 819.3,475.9 886.2,516.5 		"/>
		<polygon class="st2" points="819.3,475.9 860,574 886.2,516.5 		"/>
		<polygon class="st2" points="822.9,96.5 840.8,161.2 905.4,187.4 		"/>
		<polygon class="st2" points="905.4,187.4 840.8,161.2 907.8,255.7 		"/>
		<polygon class="st2" points="825.3,290.4 833.7,355.1 907.8,255.7 		"/>
		<polygon class="st2" points="784.6,247.3 825.3,290.4 907.8,255.7 		"/>
		<polygon class="st2" points="840.8,161.2 784.6,247.3 907.8,255.7 		"/>
		<polygon class="st2" points="833.7,722.4 856.4,777.3 949.7,708.7 		"/>
		<polygon class="st2" points="867.2,685.2 833.7,722.4 949.7,708.7 		"/>
		<polygon class="st2" points="857.6,382.5 833.7,418.4 923.4,412.4 		"/>
		<polygon class="st2" points="833.7,418.4 886.2,516.5 923.4,412.4 		"/>
		<polygon class="st2" points="886.2,516.5 860,574 927,617.1 		"/>
		<polygon class="st2" points="860,574 842,595.4 927,617.1 		"/>
		<polygon class="st2" points="842,595.4 867.2,685.2 927,617.1 		"/>
		<polygon class="st2" points="867.2,685.2 949.7,708.7 947.3,635.1 		"/>
		<polygon class="st2" points="927,617.1 867.2,685.2 947.3,635.1 		"/>
		<polygon class="st2" points="857.6,382.5 923.4,412.4 949.7,300 		"/>
		<polygon class="st2" points="833.7,355.1 857.6,382.5 949.7,300 		"/>
		<polygon class="st2" points="907.8,255.7 833.7,355.1 949.7,300 		"/>
		<polygon class="st2" points="949.7,300 923.4,412.4 973.7,381.3 		"/>
		<polygon class="st2" points="923.4,412.4 886.2,516.5 974.8,486.7 		"/>
		<polygon class="st2" points="886.2,516.5 927,617.1 974.8,486.7 		"/>
		<polygon class="st2" points="867.2,5.6 822.9,96.5 983.2,58.2 		"/>
		<polygon class="st2" points="822.9,96.5 905.4,187.4 983.2,58.2 		"/>
		<polygon class="st2" points="973.7,381.3 923.4,412.4 986.8,417.2 		"/>
		<polygon class="st2" points="923.4,412.4 974.8,486.7 986.8,417.2 		"/>
		<polygon class="st2" points="949.7,300 973.7,381.3 995.2,315.6 		"/>
		<polygon class="st2" points="974.8,486.7 927,617.1 1004.8,505.7 		"/>
		<polygon class="st2" points="983.2,58.2 905.4,187.4 1008.4,139.6 		"/>
		<polygon class="st2" points="927,617.1 947.3,635.1 1016.8,611.1 		"/>
		<polygon class="st2" points="1004.8,505.7 927,617.1 1016.8,611.1 		"/>
		<polygon class="st2" points="947.3,635.1 949.7,708.7 1016.8,611.1 		"/>
		<polygon class="st2" points="907.8,255.7 949.7,300 1016.8,248.5 		"/>
		<polygon class="st2" points="905.4,187.4 907.8,255.7 1016.8,248.5 		"/>
		<polygon class="st2" points="1008.4,139.6 905.4,187.4 1016.8,248.5 		"/>
		<polygon class="st2" points="949.7,300 995.2,315.6 1016.8,248.5 		"/>
		<polygon class="st2" points="1004.8,505.7 1016.8,611.1 1025,449.6 		"/>
		<polygon class="st2" points="986.8,417.2 974.8,486.7 1025,449.6 		"/>
		<polygon class="st2" points="974.8,486.7 1004.8,505.7 1025,449.6 		"/>
		<polyline class="st2" points="1008.4,139.6 1016.8,248.5 1068.1,228.3 		"/>
		<polygon class="st2" points="1016.8,248.5 995.2,315.6 1081.3,346.7 		"/>
		<polyline class="st2" points="1068.1,228.3 1016.8,248.5 1081.3,346.7 		"/>
		<polygon class="st2" points="1025,449.6 1016.8,611.1 1081.3,346.7 		"/>
		<polygon class="st2" points="986.8,417.2 1025,449.6 1081.3,346.7 		"/>
		<polygon class="st2" points="973.7,381.3 986.8,417.2 1081.3,346.7 		"/>
		<polygon class="st2" points="995.2,315.6 973.7,381.3 1081.3,346.7 		"/>
		<path class="st2" d="M1081.3,346.7"/>
		<path class="st2" d="M1068.1,228.3"/>
		<line class="st2" x1="983.2" y1="58.2" x2="1008.4" y2="139.6"/>
		<path class="st2" d="M1068.1,228.3"/>
		<path class="st2" d="M1008.4,139.6"/>
		<line class="st2" x1="787" y1="-52.9" x2="867.2" y2="5.6"/>
		<line class="st2" x1="867.2" y1="5.6" x2="983.2" y2="58.2"/>
		<path class="st2" d="M662.5-58.9"/>
		<path class="st2" d="M787-52.9"/>
		<path class="st2" d="M662.5-58.9"/>
		<path class="st2" d="M1081.3,346.7"/>
		<line class="st2" x1="1081.3" y1="346.7" x2="1016.8" y2="611.1"/>
		<line class="st2" x1="949.7" y1="708.7" x2="856.4" y2="777.3"/>
		<line class="st2" x1="1016.8" y1="611.1" x2="949.7" y2="708.7"/>
		<line class="st2" x1="856.4" y1="777.3" x2="787" y2="814.5"/>
		<line class="st2" x1="787" y1="814.5" x2="684.1" y2="843.2"/>
	</g>
	<g>
		<path class="st3" d="M791.4-33.6"/>
		<line class="st3" x1="791.4" y1="-33.6" x2="861.3" y2="-7.9"/>
		<path class="st3" d="M791.4-33.6"/>
		<path class="st3" d="M613-70.6"/>
		<polyline class="st3" points="613,-70.6 698.5,-43.2 791.4,-33.6 		"/>
		<polygon class="st3" points="791.4,-33.6 698.5,-43.2 732.7,3.5 		"/>
		<polygon class="st3" points="887.4,27.9 861.3,-7.9 843.6,38 		"/>
		<polygon class="st3" points="861.3,-7.9 791.4,-33.6 843.6,38 		"/>
		<polygon class="st3" points="791.4,-33.6 732.7,3.5 843.6,38 		"/>
		<polygon class="st3" points="698.5,-43.2 613,-70.6 619.6,-22.9 		"/>
		<polygon class="st3" points="619.6,-22.9 613,-70.6 543.6,-40.2 		"/>
		<polygon class="st3" points="861.3,-7.9 887.4,27.9 988,99.2 		"/>
		<polygon class="st3" points="887.4,27.9 954.9,83.9 988,99.2 		"/>
		<line class="st3" x1="861.3" y1="-7.9" x2="988" y2="99.2"/>
		<path class="st3" d="M613-70.6"/>
		<line class="st3" x1="543.6" y1="-40.2" x2="613" y2="-70.6"/>
		<line class="st3" x1="481.5" y1="-26.5" x2="543.6" y2="-40.2"/>
		<polygon class="st3" points="988,99.2 954.9,83.9 948.3,139.1 		"/>
		<polygon class="st3" points="619.6,-22.9 543.6,-40.2 625,51.8 		"/>
		<polygon class="st3" points="732.7,3.5 698.5,-43.2 625,51.8 		"/>
		<polygon class="st3" points="698.5,-43.2 619.6,-22.9 625,51.8 		"/>
		<polygon class="st3" points="988,99.2 948.3,139.1 1001.3,158.8 		"/>
		<polygon class="st3" points="954.9,83.9 887.4,27.9 862.5,148.9 		"/>
		<polygon class="st3" points="948.3,139.1 954.9,83.9 862.5,148.9 		"/>
		<polygon class="st3" points="887.4,27.9 843.6,38 862.5,148.9 		"/>
		<path class="st3" d="M1065.5,217.8"/>
		<path class="st3" d="M988,99.2"/>
		<polyline class="st3" points="988,99.2 1001.3,158.8 1065.5,217.8 		"/>
		<polygon class="st3" points="732.7,3.5 625,51.8 742.6,137.9 		"/>
		<polygon class="st3" points="843.6,38 732.7,3.5 742.6,137.9 		"/>
		<polygon class="st3" points="862.5,148.9 843.6,38 742.6,137.9 		"/>
		<path class="st3" d="M367.2,36.2"/>
		<line class="st3" x1="367.2" y1="36.2" x2="481.5" y2="-26.5"/>
		<polygon class="st3" points="543.6,-40.2 481.5,-26.5 502.2,82.3 		"/>
		<polygon class="st3" points="625,51.8 543.6,-40.2 502.2,82.3 		"/>
		<polygon class="st3" points="481.5,-26.5 367.2,36.2 400.9,94 		"/>
		<polygon class="st3" points="502.2,82.3 481.5,-26.5 400.9,94 		"/>
		<polygon class="st3" points="400.9,94 367.2,36.2 340.2,93.2 		"/>
		<polygon class="st3" points="340.2,93.2 367.2,36.2 289.4,84.1 		"/>
		<path class="st3" d="M289.4,84.1"/>
		<line class="st3" x1="289.4" y1="84.1" x2="367.2" y2="36.2"/>
		<polygon class="st3" points="742.6,137.9 625,51.8 675.7,195.1 		"/>
		<polygon class="st3" points="948.3,139.1 862.5,148.9 955.8,273 		"/>
		<polygon class="st3" points="1001.3,158.8 948.3,139.1 955.8,273 		"/>
		<polygon class="st3" points="1065.5,217.8 1001.3,158.8 955.8,273 		"/>
		<polygon class="st3" points="1062.2,301.2 1065.5,217.8 955.8,273 		"/>
		<polygon class="st3" points="862.5,148.9 742.6,137.9 771.6,247.8 		"/>
		<polygon class="st3" points="742.6,137.9 675.7,195.1 771.6,247.8 		"/>
		<polyline class="st3" points="771.6,247.8 675.7,195.1 599.6,201.3 		"/>
		<polygon class="st3" points="675.7,195.1 625,51.8 599.6,201.3 		"/>
		<polygon class="st3" points="625,51.8 502.2,82.3 579.1,199.3 		"/>
		<polygon class="st3" points="599.6,201.3 625,51.8 579.1,199.3 		"/>
		<path class="st3" d="M1070.5,343.2"/>
		<path class="st3" d="M1065.5,217.8"/>
		<polyline class="st3" points="1065.5,217.8 1062.2,301.2 1070.5,343.2 		"/>
		<polygon class="st3" points="955.8,273 862.5,148.9 810.9,276.1 		"/>
		<polygon class="st3" points="862.5,148.9 771.6,247.8 810.9,276.1 		"/>
		<polygon class="st3" points="1062.2,301.2 955.8,273 1012.1,334.5 		"/>
		<polygon class="st3" points="1070.5,343.2 1062.2,301.2 1012.1,334.5 		"/>
		<polygon class="st3" points="400.9,94 340.2,93.2 369.9,178.4 		"/>
		<polygon class="st3" points="955.8,273 810.9,276.1 823.2,321.7 		"/>
		<polygon class="st3" points="810.9,276.1 771.6,247.8 823.2,321.7 		"/>
		<polygon class="st3" points="340.2,93.2 289.4,84.1 242.5,167.9 		"/>
		<polygon class="st3" points="369.9,178.4 340.2,93.2 242.5,167.9 		"/>
		<line class="st3" x1="242.5" y1="167.9" x2="289.4" y2="84.1"/>
		<polyline class="st3" points="599.6,201.3 579.1,199.3 503.9,241.8 		"/>
		<polygon class="st3" points="579.1,199.3 502.2,82.3 503.9,241.8 		"/>
		<polygon class="st3" points="502.2,82.3 400.9,94 503.9,241.8 		"/>
		<polygon class="st3" points="400.9,94 369.9,178.4 503.9,241.8 		"/>
		<polygon class="st3" points="1070.5,343.2 1012.1,334.5 1088.3,417.8 		"/>
		<line class="st3" x1="1070.5" y1="343.2" x2="1088.3" y2="417.8"/>
		<line class="st3" x1="503.9" y1="241.8" x2="484.2" y2="272.2"/>
		<path class="st3" d="M599.6,201.3"/>
		<polygon class="st3" points="503.9,241.8 369.9,178.4 484.2,272.2 		"/>
		<path class="st3" d="M834.6,396.9"/>
		<path class="st3" d="M484.2,272.2"/>
		<path class="st3" d="M599.6,201.3"/>
		<path class="st3" d="M599.6,201.3"/>
		<path class="st3" d="M771.6,247.8"/>
		<path class="st3" d="M834.6,396.9"/>
		<polyline class="st3" points="834.6,396.9 823.2,321.7 771.6,247.8 		"/>
		<polygon class="st3" points="1012.1,334.5 955.8,273 834.6,396.9 		"/>
		<polygon class="st3" points="955.8,273 823.2,321.7 834.6,396.9 		"/>
		<polygon class="st3" points="369.9,178.4 242.5,167.9 292.1,257.4 		"/>
		<polygon class="st3" points="242.5,167.9 254.3,237 292.1,257.4 		"/>
		<polygon class="st3" points="1012.1,334.5 834.6,396.9 960.6,448.1 		"/>
		<polygon class="st3" points="1088.3,417.8 1012.1,334.5 960.6,448.1 		"/>
		<polygon class="st3" points="484.2,272.2 369.9,178.4 441.5,310 		"/>
		<polygon class="st3" points="369.9,178.4 292.1,257.4 441.5,310 		"/>
		<polygon class="st3" points="960.6,448.1 834.6,396.9 837.9,433.8 		"/>
		<polygon class="st3" points="1065.8,476 1088.3,417.8 1023.7,489.2 		"/>
		<polygon class="st3" points="1088.3,417.8 960.6,448.1 1023.7,489.2 		"/>
		<polygon class="st3" points="960.6,448.1 837.9,433.8 823.3,468.4 		"/>
		<polygon class="st3" points="837.9,433.8 834.6,396.9 823.3,468.4 		"/>
		<polygon class="st3" points="441.5,310 292.1,257.4 395.7,349.5 		"/>
		<polygon class="st3" points="292.1,257.4 254.3,237 306.6,325.9 		"/>
		<polygon class="st3" points="395.7,349.5 292.1,257.4 306.6,325.9 		"/>
		<polygon class="st3" points="1065.8,476 1023.7,489.2 1052.5,546.8 		"/>
		<line class="st3" x1="1088.3" y1="417.8" x2="1052.5" y2="546.8"/>
		<polygon class="st3" points="1088.3,417.8 1065.8,476 1052.5,546.8 		"/>
		<polygon class="st3" points="960.6,448.1 823.3,468.4 974.9,526.6 		"/>
		<polygon class="st3" points="1023.7,489.2 960.6,448.1 974.9,526.6 		"/>
		<polygon class="st3" points="1052.5,546.8 1023.7,489.2 974.9,526.6 		"/>
		<polygon class="st3" points="306.6,325.9 254.3,237 177.4,326.1 		"/>
		<polygon class="st3" points="254.3,237 242.5,167.9 177.4,326.1 		"/>
		<line class="st3" x1="177.4" y1="326.1" x2="242.5" y2="167.9"/>
		<polygon class="st3" points="441.5,310 395.7,349.5 422.8,421.7 		"/>
		<polygon class="st3" points="306.6,325.9 177.4,326.1 185,356.9 		"/>
		<polygon class="st3" points="306.6,325.9 185,356.9 296.8,392.9 		"/>
		<polygon class="st3" points="395.7,349.5 306.6,325.9 296.8,392.9 		"/>
		<polygon class="st3" points="1052.5,546.8 974.9,526.6 1010.5,599.8 		"/>
		<path class="st3" d="M442.2,445.7"/>
		<line class="st3" x1="484.2" y1="272.2" x2="441.5" y2="310"/>
		<polyline class="st3" points="441.5,310 422.8,421.7 442.2,445.7 		"/>
		<path class="st3" d="M442.2,445.7"/>
		<path class="st3" d="M484.2,272.2"/>
		<path class="st3" d="M834.6,396.9"/>
		<path class="st3" d="M442.2,445.7"/>
		<line class="st3" x1="823.3" y1="468.4" x2="834.6" y2="396.9"/>
		<polygon class="st3" points="974.9,526.6 823.3,468.4 787.2,545.2 		"/>
		<polygon class="st3" points="442.2,445.7 422.8,421.7 337.2,443.7 		"/>
		<polygon class="st3" points="422.8,421.7 395.7,349.5 337.2,443.7 		"/>
		<polygon class="st3" points="395.7,349.5 296.8,392.9 337.2,443.7 		"/>
		<polygon class="st3" points="442.2,445.7 337.2,443.7 446.1,485.3 		"/>
		<polygon class="st3" points="787.2,545.2 823.3,468.4 724.6,582.4 		"/>
		<polygon class="st3" points="296.8,392.9 185,356.9 177.5,432.9 		"/>
		<polygon class="st3" points="185,356.9 177.4,326.1 177.5,432.9 		"/>
		<line class="st3" x1="1052.5" y1="546.8" x2="1010.5" y2="599.8"/>
		<polygon class="st3" points="442.2,445.7 446.1,485.3 495.2,554.8 		"/>
		<line class="st3" x1="1010.5" y1="599.8" x2="859.7" y2="659.7"/>
		<polygon class="st3" points="1010.5,599.8 974.9,526.6 859.7,659.7 		"/>
		<polygon class="st3" points="974.9,526.6 787.2,545.2 859.7,659.7 		"/>
		<polygon class="st3" points="672.2,610.2 724.6,582.4 607.7,600.9 		"/>
		<path class="st3" d="M823.3,468.4"/>
		<path class="st3" d="M607.7,600.9"/>
		<path class="st3" d="M442.2,445.7"/>
		<polyline class="st3" points="607.7,600.9 724.6,582.4 823.3,468.4 		"/>
		<polyline class="st3" points="442.2,445.7 495.2,554.8 546.6,583.9 		"/>
		<line class="st3" x1="546.6" y1="583.9" x2="607.7" y2="600.9"/>
		<path class="st3" d="M442.2,445.7"/>
		<polygon class="st3" points="337.2,443.7 296.8,392.9 253.9,502.6 		"/>
		<polygon class="st3" points="296.8,392.9 177.5,432.9 253.9,502.6 		"/>
		<polygon class="st3" points="787.2,545.2 724.6,582.4 792.6,659.7 		"/>
		<polygon class="st3" points="859.7,659.7 787.2,545.2 792.6,659.7 		"/>
		<polygon class="st3" points="446.1,485.3 337.2,443.7 373.8,544.6 		"/>
		<polygon class="st3" points="253.9,502.6 177.5,432.9 194.8,509.8 		"/>
		<polygon class="st3" points="607.7,600.9 546.6,583.9 574.9,616.6 		"/>
		<polygon class="st3" points="495.2,554.8 446.1,485.3 389.7,567.7 		"/>
		<polygon class="st3" points="446.1,485.3 373.8,544.6 389.7,567.7 		"/>
		<path class="st3" d="M859.7,659.7"/>
		<polygon class="st3" points="337.2,443.7 253.9,502.6 280.6,544.7 		"/>
		<polygon class="st3" points="373.8,544.6 337.2,443.7 280.6,544.7 		"/>
		<polygon class="st3" points="546.6,583.9 495.2,554.8 438,608.4 		"/>
		<polygon class="st3" points="495.2,554.8 389.7,567.7 438,608.4 		"/>
		<polygon class="st3" points="859.7,659.7 792.6,659.7 750,714.9 		"/>
		<polygon class="st3" points="750,714.9 792.6,659.7 683.6,699 		"/>
		<polygon class="st3" points="672.2,610.2 607.7,600.9 683.6,699 		"/>
		<polygon class="st3" points="724.6,582.4 672.2,610.2 683.6,699 		"/>
		<polygon class="st3" points="792.6,659.7 724.6,582.4 683.6,699 		"/>
		<polygon class="st3" points="253.9,502.6 194.8,509.8 244.6,580.7 		"/>
		<polygon class="st3" points="280.6,544.7 253.9,502.6 244.6,580.7 		"/>
		<polygon class="st3" points="574.9,616.6 546.6,583.9 528.3,672 		"/>
		<polygon class="st3" points="546.6,583.9 438,608.4 528.3,672 		"/>
		<polygon class="st3" points="438,608.4 389.7,567.7 330.3,620.7 		"/>
		<polygon class="st3" points="389.7,567.7 373.8,544.6 330.3,620.7 		"/>
		<polygon class="st3" points="373.8,544.6 280.6,544.7 330.3,620.7 		"/>
		<polygon class="st3" points="280.6,544.7 244.6,580.7 307.6,635.5 		"/>
		<polygon class="st3" points="330.3,620.7 280.6,544.7 307.6,635.5 		"/>
		<polygon class="st3" points="574.9,616.6 528.3,672 629.8,727.5 		"/>
		<polygon class="st3" points="607.7,600.9 574.9,616.6 629.8,727.5 		"/>
		<polygon class="st3" points="683.6,699 607.7,600.9 629.8,727.5 		"/>
		<polygon class="st3" points="629.8,727.5 528.3,672 545,728.7 		"/>
		<polygon class="st3" points="528.3,672 438,608.4 443.1,701.7 		"/>
		<polygon class="st3" points="438,608.4 330.3,620.7 443.1,701.7 		"/>
		<line class="st3" x1="859.7" y1="659.7" x2="883.4" y2="770.9"/>
		<polygon class="st3" points="859.7,659.7 750,714.9 883.4,770.9 		"/>
		<polygon class="st3" points="545,728.7 528.3,672 506.9,731.9 		"/>
		<polygon class="st3" points="528.3,672 443.1,701.7 506.9,731.9 		"/>
		<polygon class="st3" points="629.8,727.5 545,728.7 602.6,767.1 		"/>
		<polygon class="st3" points="443.1,701.7 330.3,620.7 416.7,725.4 		"/>
		<polygon class="st3" points="883.4,770.9 750,714.9 768.6,826.8 		"/>
		<polygon class="st3" points="330.3,620.7 307.6,635.5 312.1,708.7 		"/>
		<polygon class="st3" points="416.7,725.4 330.3,620.7 312.1,708.7 		"/>
		<polygon class="st3" points="307.6,635.5 244.6,580.7 312.1,708.7 		"/>
		<polygon class="st3" points="683.6,699 629.8,727.5 661.4,805.8 		"/>
		<polygon class="st3" points="750,714.9 683.6,699 661.4,805.8 		"/>
		<polygon class="st3" points="768.6,826.8 750,714.9 661.4,805.8 		"/>
		<polygon class="st3" points="629.8,727.5 602.6,767.1 661.4,805.8 		"/>
		<polygon class="st3" points="416.7,725.4 312.1,708.7 465.5,760.1 		"/>
		<polygon class="st3" points="506.9,731.9 443.1,701.7 465.5,760.1 		"/>
		<polygon class="st3" points="443.1,701.7 416.7,725.4 465.5,760.1 		"/>
		<polygon class="st3" points="768.6,826.8 661.4,805.8 667.1,860.7 		"/>
		<polygon class="st3" points="661.4,805.8 602.6,767.1 549.5,841.8 		"/>
		<polygon class="st3" points="667.1,860.7 661.4,805.8 549.5,841.8 		"/>
		<polygon class="st3" points="465.5,760.1 312.1,708.7 549.5,841.8 		"/>
		<polygon class="st3" points="506.9,731.9 465.5,760.1 549.5,841.8 		"/>
		<polygon class="st3" points="545,728.7 506.9,731.9 549.5,841.8 		"/>
		<polygon class="st3" points="602.6,767.1 545,728.7 549.5,841.8 		"/>
		<line class="st3" x1="667.1" y1="860.7" x2="549.5" y2="841.8"/>
		<line class="st3" x1="883.4" y1="770.9" x2="768.6" y2="826.8"/>
		<line class="st3" x1="768.6" y1="826.8" x2="667.1" y2="860.7"/>
		<path class="st3" d="M883.4,770.9"/>
		<path class="st3" d="M1052.5,546.8"/>
		<path class="st3" d="M1052.5,546.8"/>
		<path class="st3" d="M549.5,841.8"/>
		<line class="st3" x1="549.5" y1="841.8" x2="312.1" y2="708.7"/>
		<line class="st3" x1="244.6" y1="580.7" x2="194.8" y2="509.8"/>
		<line class="st3" x1="312.1" y1="708.7" x2="244.6" y2="580.7"/>
		<line class="st3" x1="194.8" y1="509.8" x2="177.5" y2="432.9"/>
		<line class="st3" x1="177.5" y1="432.9" x2="177.4" y2="326.1"/>
	</g>
	<circle class="st4" cx="173.2" cy="347.9" r="4.4"/>
	<circle class="st4" cx="179.2" cy="273.7" r="4.4"/>
	<circle class="st4" cx="173.2" cy="347.9" r="4.4"/>
	<circle class="st4" cx="173.2" cy="347.9" r="4.4"/>
	<circle class="st4" cx="185.2" cy="529.7" r="4.4"/>
	<circle class="st4" cx="188.8" cy="440" r="4.4"/>
	<circle class="st4" cx="185.2" cy="529.7" r="4.4"/>
	<circle class="st4" cx="173.2" cy="347.9" r="4.4"/>
	<circle class="st4" cx="224.6" cy="394.5" r="4.4"/>
	<circle class="st4" cx="188.8" cy="440" r="4.4"/>
	<circle class="st4" cx="173.2" cy="347.9" r="4.4"/>
	<circle class="st4" cx="228.2" cy="278.4" r="4.4"/>
	<circle class="st4" cx="179.2" cy="273.7" r="4.4"/>
	<circle class="st4" cx="206.8" cy="238.9" r="4.4"/>
	<circle class="st4" cx="228.2" cy="278.4" r="4.4"/>
	<circle class="st4" cx="173.2" cy="347.9" r="4.4"/>
	<circle class="st4" cx="179.2" cy="273.7" r="4.4"/>
	<circle class="st4" cx="228.2" cy="278.4" r="4.4"/>
	<circle class="st4" cx="224.6" cy="394.5" r="4.4"/>
	<circle class="st4" cx="173.2" cy="347.9" r="4.4"/>
	<circle class="st4" cx="229.4" cy="510.5" r="4.4"/>
	<circle class="st4" cx="185.2" cy="529.7" r="4.4"/>
	<circle class="st4" cx="188.8" cy="440" r="4.4"/>
	<circle class="st4" cx="233" cy="588.4" r="4.4"/>
	<circle class="st4" cx="185.2" cy="529.7" r="4.4"/>
	<circle class="st4" cx="229.4" cy="510.5" r="4.4"/>
	<circle class="st4" cx="248.6" cy="122.9" r="4.4"/>
	<circle class="st4" cx="206.8" cy="238.9" r="4.4"/>
	<circle class="st4" cx="179.2" cy="273.7" r="4.4"/>
	<circle class="st4" cx="248.6" cy="122.9" r="4.4"/>
	<circle class="st4" cx="242.6" cy="158.8" r="4.4"/>
	<circle class="st4" cx="206.8" cy="238.9" r="4.4"/>
	<circle class="st4" cx="248.6" cy="122.9" r="4.4"/>
	<circle class="st4" cx="179.2" cy="273.7" r="4.4"/>
	<circle class="st4" cx="185.2" cy="529.7" r="4.4"/>
	<circle class="st4" cx="249.8" cy="644.5" r="4.4"/>
	<circle class="st4" cx="185.2" cy="529.7" r="4.4"/>
	<circle class="st4" cx="233" cy="588.4" r="4.4"/>
	<circle class="st4" cx="249.8" cy="644.5" r="4.4"/>
	<circle class="st4" cx="262.9" cy="644.5" r="4.4"/>
	<circle class="st4" cx="249.8" cy="644.5" r="4.4"/>
	<circle class="st4" cx="233" cy="588.4" r="4.4"/>
	<circle class="st4" cx="297.7" cy="150.4" r="4.4"/>
	<circle class="st4" cx="242.6" cy="158.8" r="4.4"/>
	<circle class="st4" cx="248.6" cy="122.9" r="4.4"/>
	<circle class="st4" cx="300" cy="485.5" r="4.4"/>
	<circle class="st4" cx="233" cy="588.4" r="4.4"/>
	<circle class="st4" cx="229.4" cy="510.5" r="4.4"/>
	<circle class="st4" cx="300" cy="485.5" r="4.4"/>
	<circle class="st4" cx="188.8" cy="440" r="4.4"/>
	<circle class="st4" cx="224.6" cy="394.5" r="4.4"/>
	<circle class="st4" cx="300" cy="485.5" r="4.4"/>
	<circle class="st4" cx="229.4" cy="510.5" r="4.4"/>
	<circle class="st4" cx="188.8" cy="440" r="4.4"/>
	<circle class="st4" cx="302.4" cy="94.1" r="4.4"/>
	<circle class="st4" cx="297.7" cy="150.4" r="4.4"/>
	<circle class="st4" cx="248.6" cy="122.9" r="4.4"/>
	<circle class="st4" cx="242.6" cy="158.8" r="4.4"/>
	<circle class="st4" cx="330" cy="230.5" r="4.4"/>
	<circle class="st4" cx="206.8" cy="238.9" r="4.4"/>
	<circle class="st4" cx="330" cy="230.5" r="4.4"/>
	<circle class="st4" cx="242.6" cy="158.8" r="4.4"/>
	<circle class="st4" cx="297.7" cy="150.4" r="4.4"/>
	<circle class="st4" cx="330" cy="230.5" r="4.4"/>
	<circle class="st4" cx="228.2" cy="278.4" r="4.4"/>
	<circle class="st4" cx="206.8" cy="238.9" r="4.4"/>
	<circle class="st4" cx="342" cy="16.4" r="4.4"/>
	<circle class="st4" cx="248.6" cy="122.9" r="4.4"/>
	<circle class="st4" cx="342" cy="16.4" r="4.4"/>
	<circle class="st4" cx="302.4" cy="94.1" r="4.4"/>
	<circle class="st4" cx="248.6" cy="122.9" r="4.4"/>
	<circle class="st4" cx="351.4" cy="349.1" r="4.4"/>
	<circle class="st4" cx="300" cy="485.5" r="4.4"/>
	<circle class="st4" cx="224.6" cy="394.5" r="4.4"/>
	<circle class="st4" cx="351.4" cy="349.1" r="4.4"/>
	<circle class="st4" cx="224.6" cy="394.5" r="4.4"/>
	<circle class="st4" cx="228.2" cy="278.4" r="4.4"/>
	<circle class="st4" cx="351.4" cy="349.1" r="4.4"/>
	<circle class="st4" cx="228.2" cy="278.4" r="4.4"/>
	<circle class="st4" cx="330" cy="230.5" r="4.4"/>
	<circle class="st4" cx="249.8" cy="644.5" r="4.4"/>
	<circle class="st4" cx="353.8" cy="737.9" r="4.4"/>
	<circle class="st4" cx="353.8" cy="737.9" r="4.4"/>
	<circle class="st4" cx="249.8" cy="644.5" r="4.4"/>
	<circle class="st4" cx="262.9" cy="644.5" r="4.4"/>
	<circle class="st4" cx="362.2" cy="595.4" r="4.4"/>
	<circle class="st4" cx="262.9" cy="644.5" r="4.4"/>
	<circle class="st4" cx="233" cy="588.4" r="4.4"/>
	<circle class="st4" cx="362.2" cy="595.4" r="4.4"/>
	<circle class="st4" cx="233" cy="588.4" r="4.4"/>
	<circle class="st4" cx="300" cy="485.5" r="4.4"/>
	<circle class="st4" cx="400.5" cy="690" r="4.4"/>
	<circle class="st4" cx="353.8" cy="737.9" r="4.4"/>
	<circle class="st4" cx="262.9" cy="644.5" r="4.4"/>
	<circle class="st4" cx="400.5" cy="690" r="4.4"/>
	<circle class="st4" cx="262.9" cy="644.5" r="4.4"/>
	<circle class="st4" cx="362.2" cy="595.4" r="4.4"/>
	<circle class="st4" cx="416.1" cy="748.7" r="4.4"/>
	<circle class="st4" cx="353.8" cy="737.9" r="4.4"/>
	<circle class="st4" cx="400.5" cy="690" r="4.4"/>
	<circle class="st4" cx="420.9" cy="800.1" r="4.4"/>
	<circle class="st4" cx="353.8" cy="737.9" r="4.4"/>
	<circle class="st4" cx="416.1" cy="748.7" r="4.4"/>
	<circle class="st4" cx="420.9" cy="800.1" r="4.4"/>
	<circle class="st4" cx="353.8" cy="737.9" r="4.4"/>
	<circle class="st4" cx="420.9" cy="800.1" r="4.4"/>
	<circle class="st4" cx="424.5" cy="398.1" r="4.4"/>
	<circle class="st4" cx="300" cy="485.5" r="4.4"/>
	<circle class="st4" cx="351.4" cy="349.1" r="4.4"/>
	<circle class="st4" cx="424.5" cy="107.3" r="4.4"/>
	<circle class="st4" cx="330" cy="230.5" r="4.4"/>
	<circle class="st4" cx="297.7" cy="150.4" r="4.4"/>
	<circle class="st4" cx="424.5" cy="107.3" r="4.4"/>
	<circle class="st4" cx="297.7" cy="150.4" r="4.4"/>
	<circle class="st4" cx="302.4" cy="94.1" r="4.4"/>
	<circle class="st4" cx="424.5" cy="107.3" r="4.4"/>
	<circle class="st4" cx="302.4" cy="94.1" r="4.4"/>
	<circle class="st4" cx="342" cy="16.4" r="4.4"/>
	<circle class="st4" cx="424.5" cy="107.3" r="4.4"/>
	<circle class="st4" cx="342" cy="16.4" r="4.4"/>
	<circle class="st4" cx="423.3" cy="-2.7" r="4.4"/>
	<circle class="st4" cx="449.6" cy="291.6" r="4.4"/>
	<circle class="st4" cx="351.4" cy="349.1" r="4.4"/>
	<circle class="st4" cx="330" cy="230.5" r="4.4"/>
	<circle class="st4" cx="449.6" cy="291.6" r="4.4"/>
	<circle class="st4" cx="424.5" cy="398.1" r="4.4"/>
	<circle class="st4" cx="351.4" cy="349.1" r="4.4"/>
	<circle class="st4" cx="450.8" cy="469.9" r="4.4"/>
	<circle class="st4" cx="424.5" cy="398.1" r="4.4"/>
	<circle class="st4" cx="449.6" cy="291.6" r="4.4"/>
	<circle class="st4" cx="450.8" cy="469.9" r="4.4"/>
	<circle class="st4" cx="300" cy="485.5" r="4.4"/>
	<circle class="st4" cx="424.5" cy="398.1" r="4.4"/>
	<circle class="st4" cx="454.4" cy="490.3" r="4.4"/>
	<circle class="st4" cx="362.2" cy="595.4" r="4.4"/>
	<circle class="st4" cx="300" cy="485.5" r="4.4"/>
	<circle class="st4" cx="454.4" cy="490.3" r="4.4"/>
	<circle class="st4" cx="300" cy="485.5" r="4.4"/>
	<circle class="st4" cx="450.8" cy="469.9" r="4.4"/>
	<circle class="st4" cx="461.6" cy="-21.9" r="4.4"/>
	<circle class="st4" cx="342" cy="16.4" r="4.4"/>
	<circle class="st4" cx="461.6" cy="-21.9" r="4.4"/>
	<circle class="st4" cx="423.3" cy="-2.7" r="4.4"/>
	<circle class="st4" cx="342" cy="16.4" r="4.4"/>
	<circle class="st4" cx="466.4" cy="246.1" r="4.4"/>
	<circle class="st4" cx="330" cy="230.5" r="4.4"/>
	<circle class="st4" cx="424.5" cy="107.3" r="4.4"/>
	<circle class="st4" cx="466.4" cy="246.1" r="4.4"/>
	<circle class="st4" cx="449.6" cy="291.6" r="4.4"/>
	<circle class="st4" cx="330" cy="230.5" r="4.4"/>
	<circle class="st4" cx="468.8" cy="36.8" r="4.4"/>
	<circle class="st4" cx="424.5" cy="107.3" r="4.4"/>
	<circle class="st4" cx="423.3" cy="-2.7" r="4.4"/>
	<circle class="st4" cx="468.8" cy="36.8" r="4.4"/>
	<circle class="st4" cx="423.3" cy="-2.7" r="4.4"/>
	<circle class="st4" cx="461.6" cy="-21.9" r="4.4"/>
	<circle class="st4" cx="490.2" cy="697.2" r="4.4"/>
	<circle class="st4" cx="416.1" cy="748.7" r="4.4"/>
	<circle class="st4" cx="400.5" cy="690" r="4.4"/>
	<circle class="st4" cx="507" cy="222.3" r="4.4"/>
	<circle class="st4" cx="466.4" cy="246.1" r="4.4"/>
	<circle class="st4" cx="424.5" cy="107.3" r="4.4"/>
	<circle class="st4" cx="507" cy="222.3" r="4.4"/>
	<circle class="st4" cx="449.6" cy="291.6" r="4.4"/>
	<circle class="st4" cx="466.4" cy="246.1" r="4.4"/>
	<circle class="st4" cx="514.2" cy="822.8" r="4.4"/>
	<circle class="st4" cx="420.9" cy="800.1" r="4.4"/>
	<circle class="st4" cx="416.1" cy="748.7" r="4.4"/>
	<circle class="st4" cx="514.2" cy="822.8" r="4.4"/>
	<circle class="st4" cx="416.1" cy="748.7" r="4.4"/>
	<circle class="st4" cx="490.2" cy="697.2" r="4.4"/>
	<circle class="st4" cx="420.9" cy="800.1" r="4.4"/>
	<circle class="st4" cx="514.2" cy="822.8" r="4.4"/>
	<circle class="st4" cx="515.4" cy="551.2" r="4.4"/>
	<circle class="st4" cx="454.4" cy="490.3" r="4.4"/>
	<circle class="st4" cx="450.8" cy="469.9" r="4.4"/>
	<circle class="st4" cx="515.4" cy="551.2" r="4.4"/>
	<circle class="st4" cx="362.2" cy="595.4" r="4.4"/>
	<circle class="st4" cx="454.4" cy="490.3" r="4.4"/>
	<circle class="st4" cx="515.4" cy="551.2" r="4.4"/>
	<circle class="st4" cx="400.5" cy="690" r="4.4"/>
	<circle class="st4" cx="362.2" cy="595.4" r="4.4"/>
	<circle class="st4" cx="515.4" cy="551.2" r="4.4"/>
	<circle class="st4" cx="490.2" cy="697.2" r="4.4"/>
	<circle class="st4" cx="400.5" cy="690" r="4.4"/>
	<circle class="st4" cx="528.5" cy="-58.9" r="4.4"/>
	<circle class="st4" cx="468.8" cy="36.8" r="4.4"/>
	<circle class="st4" cx="461.6" cy="-21.9" r="4.4"/>
	<circle class="st4" cx="528.5" cy="-58.9" r="4.4"/>
	<circle class="st4" cx="461.6" cy="-21.9" r="4.4"/>
	<circle class="st4" cx="550.1" cy="562" r="4.4"/>
	<circle class="st4" cx="515.4" cy="551.2" r="4.4"/>
	<circle class="st4" cx="450.8" cy="469.9" r="4.4"/>
	<circle class="st4" cx="550.1" cy="562" r="4.4"/>
	<circle class="st4" cx="490.2" cy="697.2" r="4.4"/>
	<circle class="st4" cx="515.4" cy="551.2" r="4.4"/>
	<circle class="st4" cx="576.4" cy="191" r="4.4"/>
	<circle class="st4" cx="550.1" cy="562" r="4.4"/>
	<circle class="st4" cx="450.8" cy="469.9" r="4.4"/>
	<circle class="st4" cx="450.8" cy="469.9" r="4.4"/>
	<circle class="st4" cx="449.6" cy="291.6" r="4.4"/>
	<circle class="st4" cx="576.4" cy="191" r="4.4"/>
	<circle class="st4" cx="449.6" cy="291.6" r="4.4"/>
	<circle class="st4" cx="507" cy="222.3" r="4.4"/>
	<circle class="st4" cx="576.4" cy="191" r="4.4"/>
	<circle class="st4" cx="576.4" cy="191" r="4.4"/>
	<circle class="st4" cx="424.5" cy="107.3" r="4.4"/>
	<circle class="st4" cx="468.8" cy="36.8" r="4.4"/>
	<circle class="st4" cx="576.4" cy="191" r="4.4"/>
	<circle class="st4" cx="507" cy="222.3" r="4.4"/>
	<circle class="st4" cx="424.5" cy="107.3" r="4.4"/>
	<circle class="st4" cx="587.2" cy="751.1" r="4.4"/>
	<circle class="st4" cx="514.2" cy="822.8" r="4.4"/>
	<circle class="st4" cx="490.2" cy="697.2" r="4.4"/>
	<circle class="st4" cx="587.2" cy="751.1" r="4.4"/>
	<circle class="st4" cx="577.6" cy="792.9" r="4.4"/>
	<circle class="st4" cx="514.2" cy="822.8" r="4.4"/>
	<circle class="st4" cx="592" cy="55.8" r="4.4"/>
	<circle class="st4" cx="576.4" cy="191" r="4.4"/>
	<circle class="st4" cx="468.8" cy="36.8" r="4.4"/>
	<circle class="st4" cx="592" cy="55.8" r="4.4"/>
	<circle class="st4" cx="468.8" cy="36.8" r="4.4"/>
	<circle class="st4" cx="528.5" cy="-58.9" r="4.4"/>
	<circle class="st4" cx="598" cy="593" r="4.4"/>
	<circle class="st4" cx="490.2" cy="697.2" r="4.4"/>
	<circle class="st4" cx="550.1" cy="562" r="4.4"/>
	<circle class="st4" cx="598" cy="593" r="4.4"/>
	<circle class="st4" cx="587.2" cy="751.1" r="4.4"/>
	<circle class="st4" cx="490.2" cy="697.2" r="4.4"/>
	<circle class="st4" cx="611.2" cy="178" r="4.4"/>
	<circle class="st4" cx="576.4" cy="191" r="4.4"/>
	<circle class="st4" cx="592" cy="55.8" r="4.4"/>
	<circle class="st4" cx="614.6" cy="-15.9" r="4.4"/>
	<circle class="st4" cx="528.5" cy="-58.9" r="4.4"/>
	<circle class="st4" cx="590.8" cy="-52.9" r="4.4"/>
	<circle class="st4" cx="614.6" cy="-15.9" r="4.4"/>
	<circle class="st4" cx="592" cy="55.8" r="4.4"/>
	<circle class="st4" cx="528.5" cy="-58.9" r="4.4"/>
	<circle class="st4" cx="648.2" cy="182.8" r="4.4"/>
	<circle class="st4" cx="611.2" cy="178" r="4.4"/>
	<circle class="st4" cx="592" cy="55.8" r="4.4"/>
	<circle class="st4" cx="648.2" cy="182.8" r="4.4"/>
	<circle class="st4" cx="576.4" cy="191" r="4.4"/>
	<circle class="st4" cx="611.2" cy="178" r="4.4"/>
	<circle class="st4" cx="648.2" cy="626.7" r="4.4"/>
	<circle class="st4" cx="587.2" cy="751.1" r="4.4"/>
	<circle class="st4" cx="598" cy="593" r="4.4"/>
	<circle class="st4" cx="649.4" cy="718.8" r="4.4"/>
	<circle class="st4" cx="577.6" cy="792.9" r="4.4"/>
	<circle class="st4" cx="587.2" cy="751.1" r="4.4"/>
	<circle class="st4" cx="649.4" cy="718.8" r="4.4"/>
	<circle class="st4" cx="587.2" cy="751.1" r="4.4"/>
	<circle class="st4" cx="648.2" cy="626.7" r="4.4"/>
	<circle class="st4" cx="662.5" cy="-58.9" r="4.4"/>
	<circle class="st4" cx="614.6" cy="-15.9" r="4.4"/>
	<circle class="st4" cx="590.8" cy="-52.9" r="4.4"/>
	<circle class="st4" cx="662.5" cy="-58.9" r="4.4"/>
	<circle class="st4" cx="528.5" cy="-58.9" r="4.4"/>
	<circle class="st4" cx="662.5" cy="-58.9" r="4.4"/>
	<circle class="st4" cx="590.8" cy="-52.9" r="4.4"/>
	<circle class="st4" cx="528.5" cy="-58.9" r="4.4"/>
	<circle class="st4" cx="663.7" cy="21.2" r="4.4"/>
	<circle class="st4" cx="648.2" cy="182.8" r="4.4"/>
	<circle class="st4" cx="592" cy="55.8" r="4.4"/>
	<circle class="st4" cx="663.7" cy="21.2" r="4.4"/>
	<circle class="st4" cx="592" cy="55.8" r="4.4"/>
	<circle class="st4" cx="614.6" cy="-15.9" r="4.4"/>
	<circle class="st4" cx="663.7" cy="21.2" r="4.4"/>
	<circle class="st4" cx="614.6" cy="-15.9" r="4.4"/>
	<circle class="st4" cx="662.5" cy="-58.9" r="4.4"/>
	<circle class="st4" cx="684.1" cy="843.2" r="4.4"/>
	<circle class="st4" cx="577.6" cy="792.9" r="4.4"/>
	<circle class="st4" cx="649.4" cy="718.8" r="4.4"/>
	<circle class="st4" cx="684.1" cy="843.2" r="4.4"/>
	<circle class="st4" cx="514.2" cy="822.8" r="4.4"/>
	<circle class="st4" cx="577.6" cy="792.9" r="4.4"/>
	<circle class="st4" cx="514.2" cy="822.8" r="4.4"/>
	<circle class="st4" cx="684.1" cy="843.2" r="4.4"/>
	<circle class="st4" cx="710.4" cy="581.2" r="4.4"/>
	<circle class="st4" cx="648.2" cy="626.7" r="4.4"/>
	<circle class="st4" cx="598" cy="593" r="4.4"/>
	<circle class="st4" cx="711.6" cy="827.6" r="4.4"/>
	<circle class="st4" cx="684.1" cy="843.2" r="4.4"/>
	<circle class="st4" cx="649.4" cy="718.8" r="4.4"/>
	<circle class="st4" cx="716.4" cy="710.4" r="4.4"/>
	<circle class="st4" cx="711.6" cy="827.6" r="4.4"/>
	<circle class="st4" cx="649.4" cy="718.8" r="4.4"/>
	<circle class="st4" cx="716.4" cy="710.4" r="4.4"/>
	<circle class="st4" cx="649.4" cy="718.8" r="4.4"/>
	<circle class="st4" cx="648.2" cy="626.7" r="4.4"/>
	<circle class="st4" cx="724.8" cy="-32.7" r="4.4"/>
	<circle class="st4" cx="663.7" cy="21.2" r="4.4"/>
	<circle class="st4" cx="662.5" cy="-58.9" r="4.4"/>
	<circle class="st4" cx="728.4" cy="556" r="4.4"/>
	<circle class="st4" cx="598" cy="593" r="4.4"/>
	<circle class="st4" cx="550.1" cy="562" r="4.4"/>
	<circle class="st4" cx="728.4" cy="556" r="4.4"/>
	<circle class="st4" cx="710.4" cy="581.2" r="4.4"/>
	<circle class="st4" cx="598" cy="593" r="4.4"/>
	<circle class="st4" cx="728.4" cy="556" r="4.4"/>
	<circle class="st4" cx="550.1" cy="562" r="4.4"/>
	<circle class="st4" cx="576.4" cy="191" r="4.4"/>
	<circle class="st4" cx="728.4" cy="556" r="4.4"/>
	<circle class="st4" cx="576.4" cy="191" r="4.4"/>
	<circle class="st4" cx="648.2" cy="182.8" r="4.4"/>
	<circle class="st4" cx="732" cy="197.1" r="4.4"/>
	<circle class="st4" cx="648.2" cy="182.8" r="4.4"/>
	<circle class="st4" cx="663.7" cy="21.2" r="4.4"/>
	<circle class="st4" cx="754.6" cy="657.7" r="4.4"/>
	<circle class="st4" cx="710.4" cy="581.2" r="4.4"/>
	<circle class="st4" cx="728.4" cy="556" r="4.4"/>
	<circle class="st4" cx="754.6" cy="657.7" r="4.4"/>
	<circle class="st4" cx="648.2" cy="626.7" r="4.4"/>
	<circle class="st4" cx="710.4" cy="581.2" r="4.4"/>
	<circle class="st4" cx="754.6" cy="657.7" r="4.4"/>
	<circle class="st4" cx="716.4" cy="710.4" r="4.4"/>
	<circle class="st4" cx="648.2" cy="626.7" r="4.4"/>
	<circle class="st4" cx="765.4" cy="541.7" r="4.4"/>
	<circle class="st4" cx="754.6" cy="657.7" r="4.4"/>
	<circle class="st4" cx="728.4" cy="556" r="4.4"/>
	<circle class="st4" cx="784.6" cy="247.3" r="4.4"/>
	<circle class="st4" cx="648.2" cy="182.8" r="4.4"/>
	<circle class="st4" cx="732" cy="197.1" r="4.4"/>
	<circle class="st4" cx="787" cy="814.5" r="4.4"/>
	<circle class="st4" cx="711.6" cy="827.6" r="4.4"/>
	<circle class="st4" cx="716.4" cy="710.4" r="4.4"/>
	<circle class="st4" cx="787" cy="814.5" r="4.4"/>
	<circle class="st4" cx="684.1" cy="843.2" r="4.4"/>
	<circle class="st4" cx="711.6" cy="827.6" r="4.4"/>
	<circle class="st4" cx="787" cy="-52.9" r="4.4"/>
	<circle class="st4" cx="724.8" cy="-32.7" r="4.4"/>
	<circle class="st4" cx="662.5" cy="-58.9" r="4.4"/>
	<circle class="st4" cx="819.3" cy="475.9" r="4.4"/>
	<circle class="st4" cx="765.4" cy="541.7" r="4.4"/>
	<circle class="st4" cx="728.4" cy="556" r="4.4"/>
	<circle class="st4" cx="822.9" cy="96.5" r="4.4"/>
	<circle class="st4" cx="724.8" cy="-32.7" r="4.4"/>
	<circle class="st4" cx="787" cy="-52.9" r="4.4"/>
	<circle class="st4" cx="822.9" cy="96.5" r="4.4"/>
	<circle class="st4" cx="663.7" cy="21.2" r="4.4"/>
	<circle class="st4" cx="724.8" cy="-32.7" r="4.4"/>
	<circle class="st4" cx="822.9" cy="96.5" r="4.4"/>
	<circle class="st4" cx="732" cy="197.1" r="4.4"/>
	<circle class="st4" cx="663.7" cy="21.2" r="4.4"/>
	<circle class="st4" cx="833.7" cy="355.1" r="4.4"/>
	<circle class="st4" cx="784.6" cy="247.3" r="4.4"/>
	<circle class="st4" cx="825.3" cy="290.4" r="4.4"/>
	<circle class="st4" cx="648.2" cy="182.8" r="4.4"/>
	<circle class="st4" cx="833.7" cy="355.1" r="4.4"/>
	<circle class="st4" cx="728.4" cy="556" r="4.4"/>
	<circle class="st4" cx="648.2" cy="182.8" r="4.4"/>
	<circle class="st4" cx="784.6" cy="247.3" r="4.4"/>
	<circle class="st4" cx="833.7" cy="355.1" r="4.4"/>
	<circle class="st4" cx="833.7" cy="418.4" r="4.4"/>
	<circle class="st4" cx="819.3" cy="475.9" r="4.4"/>
	<circle class="st4" cx="728.4" cy="556" r="4.4"/>
	<circle class="st4" cx="833.7" cy="355.1" r="4.4"/>
	<circle class="st4" cx="833.7" cy="418.4" r="4.4"/>
	<circle class="st4" cx="728.4" cy="556" r="4.4"/>
	<circle class="st4" cx="833.7" cy="722.4" r="4.4"/>
	<circle class="st4" cx="716.4" cy="710.4" r="4.4"/>
	<circle class="st4" cx="754.6" cy="657.7" r="4.4"/>
	<circle class="st4" cx="833.7" cy="722.4" r="4.4"/>
	<circle class="st4" cx="787" cy="814.5" r="4.4"/>
	<circle class="st4" cx="716.4" cy="710.4" r="4.4"/>
	<circle class="st4" cx="840.8" cy="161.2" r="4.4"/>
	<circle class="st4" cx="784.6" cy="247.3" r="4.4"/>
	<circle class="st4" cx="732" cy="197.1" r="4.4"/>
	<circle class="st4" cx="840.8" cy="161.2" r="4.4"/>
	<circle class="st4" cx="732" cy="197.1" r="4.4"/>
	<circle class="st4" cx="822.9" cy="96.5" r="4.4"/>
	<circle class="st4" cx="842" cy="595.4" r="4.4"/>
	<circle class="st4" cx="754.6" cy="657.7" r="4.4"/>
	<circle class="st4" cx="765.4" cy="541.7" r="4.4"/>
	<circle class="st4" cx="856.4" cy="777.3" r="4.4"/>
	<circle class="st4" cx="787" cy="814.5" r="4.4"/>
	<circle class="st4" cx="833.7" cy="722.4" r="4.4"/>
	<circle class="st4" cx="857.6" cy="382.5" r="4.4"/>
	<circle class="st4" cx="833.7" cy="418.4" r="4.4"/>
	<circle class="st4" cx="833.7" cy="355.1" r="4.4"/>
	<circle class="st4" cx="860" cy="574" r="4.4"/>
	<circle class="st4" cx="765.4" cy="541.7" r="4.4"/>
	<circle class="st4" cx="819.3" cy="475.9" r="4.4"/>
	<circle class="st4" cx="860" cy="574" r="4.4"/>
	<circle class="st4" cx="842" cy="595.4" r="4.4"/>
	<circle class="st4" cx="765.4" cy="541.7" r="4.4"/>
	<circle class="st4" cx="867.2" cy="5.6" r="4.4"/>
	<circle class="st4" cx="822.9" cy="96.5" r="4.4"/>
	<circle class="st4" cx="787" cy="-52.9" r="4.4"/>
	<circle class="st4" cx="867.2" cy="685.2" r="4.4"/>
	<circle class="st4" cx="833.7" cy="722.4" r="4.4"/>
	<circle class="st4" cx="754.6" cy="657.7" r="4.4"/>
	<circle class="st4" cx="867.2" cy="685.2" r="4.4"/>
	<circle class="st4" cx="754.6" cy="657.7" r="4.4"/>
	<circle class="st4" cx="842" cy="595.4" r="4.4"/>
	<circle class="st4" cx="886.2" cy="516.5" r="4.4"/>
	<circle class="st4" cx="819.3" cy="475.9" r="4.4"/>
	<circle class="st4" cx="833.7" cy="418.4" r="4.4"/>
	<circle class="st4" cx="886.2" cy="516.5" r="4.4"/>
	<circle class="st4" cx="860" cy="574" r="4.4"/>
	<circle class="st4" cx="819.3" cy="475.9" r="4.4"/>
	<circle class="st4" cx="905.4" cy="187.4" r="4.4"/>
	<circle class="st4" cx="840.8" cy="161.2" r="4.4"/>
	<circle class="st4" cx="822.9" cy="96.5" r="4.4"/>
	<circle class="st4" cx="907.8" cy="255.7" r="4.4"/>
	<circle class="st4" cx="840.8" cy="161.2" r="4.4"/>
	<circle class="st4" cx="905.4" cy="187.4" r="4.4"/>
	<circle class="st4" cx="907.8" cy="255.7" r="4.4"/>
	<circle class="st4" cx="833.7" cy="355.1" r="4.4"/>
	<circle class="st4" cx="825.3" cy="290.4" r="4.4"/>
	<circle class="st4" cx="907.8" cy="255.7" r="4.4"/>
	<circle class="st4" cx="825.3" cy="290.4" r="4.4"/>
	<circle class="st4" cx="784.6" cy="247.3" r="4.4"/>
	<circle class="st4" cx="907.8" cy="255.7" r="4.4"/>
	<circle class="st4" cx="784.6" cy="247.3" r="4.4"/>
	<circle class="st4" cx="840.8" cy="161.2" r="4.4"/>
	<circle class="st4" cx="949.7" cy="708.7" r="4.4"/>
	<circle class="st4" cx="856.4" cy="777.3" r="4.4"/>
	<circle class="st4" cx="833.7" cy="722.4" r="4.4"/>
	<circle class="st4" cx="949.7" cy="708.7" r="4.4"/>
	<circle class="st4" cx="833.7" cy="722.4" r="4.4"/>
	<circle class="st4" cx="867.2" cy="685.2" r="4.4"/>
	<circle class="st4" cx="923.4" cy="412.4" r="4.4"/>
	<circle class="st4" cx="833.7" cy="418.4" r="4.4"/>
	<circle class="st4" cx="857.6" cy="382.5" r="4.4"/>
	<circle class="st4" cx="923.4" cy="412.4" r="4.4"/>
	<circle class="st4" cx="886.2" cy="516.5" r="4.4"/>
	<circle class="st4" cx="833.7" cy="418.4" r="4.4"/>
	<circle class="st4" cx="927" cy="617.1" r="4.4"/>
	<circle class="st4" cx="860" cy="574" r="4.4"/>
	<circle class="st4" cx="886.2" cy="516.5" r="4.4"/>
	<circle class="st4" cx="927" cy="617.1" r="4.4"/>
	<circle class="st4" cx="842" cy="595.4" r="4.4"/>
	<circle class="st4" cx="860" cy="574" r="4.4"/>
	<circle class="st4" cx="927" cy="617.1" r="4.4"/>
	<circle class="st4" cx="867.2" cy="685.2" r="4.4"/>
	<circle class="st4" cx="842" cy="595.4" r="4.4"/>
	<circle class="st4" cx="947.3" cy="635.1" r="4.4"/>
	<circle class="st4" cx="949.7" cy="708.7" r="4.4"/>
	<circle class="st4" cx="867.2" cy="685.2" r="4.4"/>
	<circle class="st4" cx="947.3" cy="635.1" r="4.4"/>
	<circle class="st4" cx="867.2" cy="685.2" r="4.4"/>
	<circle class="st4" cx="927" cy="617.1" r="4.4"/>
	<circle class="st4" cx="949.7" cy="300" r="4.4"/>
	<circle class="st4" cx="923.4" cy="412.4" r="4.4"/>
	<circle class="st4" cx="857.6" cy="382.5" r="4.4"/>
	<circle class="st4" cx="949.7" cy="300" r="4.4"/>
	<circle class="st4" cx="857.6" cy="382.5" r="4.4"/>
	<circle class="st4" cx="833.7" cy="355.1" r="4.4"/>
	<circle class="st4" cx="949.7" cy="300" r="4.4"/>
	<circle class="st4" cx="833.7" cy="355.1" r="4.4"/>
	<circle class="st4" cx="907.8" cy="255.7" r="4.4"/>
	<circle class="st4" cx="973.7" cy="381.3" r="4.4"/>
	<circle class="st4" cx="923.4" cy="412.4" r="4.4"/>
	<circle class="st4" cx="949.7" cy="300" r="4.4"/>
	<circle class="st4" cx="974.8" cy="486.7" r="4.4"/>
	<circle class="st4" cx="886.2" cy="516.5" r="4.4"/>
	<circle class="st4" cx="923.4" cy="412.4" r="4.4"/>
	<circle class="st4" cx="974.8" cy="486.7" r="4.4"/>
	<circle class="st4" cx="927" cy="617.1" r="4.4"/>
	<circle class="st4" cx="886.2" cy="516.5" r="4.4"/>
	<circle class="st4" cx="983.2" cy="58.2" r="4.4"/>
	<circle class="st4" cx="822.9" cy="96.5" r="4.4"/>
	<circle class="st4" cx="867.2" cy="5.6" r="4.4"/>
	<circle class="st4" cx="983.2" cy="58.2" r="4.4"/>
	<circle class="st4" cx="905.4" cy="187.4" r="4.4"/>
	<circle class="st4" cx="822.9" cy="96.5" r="4.4"/>
	<circle class="st4" cx="986.8" cy="417.2" r="4.4"/>
	<circle class="st4" cx="923.4" cy="412.4" r="4.4"/>
	<circle class="st4" cx="973.7" cy="381.3" r="4.4"/>
	<circle class="st4" cx="986.8" cy="417.2" r="4.4"/>
	<circle class="st4" cx="974.8" cy="486.7" r="4.4"/>
	<circle class="st4" cx="923.4" cy="412.4" r="4.4"/>
	<circle class="st4" cx="995.2" cy="315.6" r="4.4"/>
	<circle class="st4" cx="973.7" cy="381.3" r="4.4"/>
	<circle class="st4" cx="949.7" cy="300" r="4.4"/>
	<circle class="st4" cx="1004.8" cy="505.7" r="4.4"/>
	<circle class="st4" cx="927" cy="617.1" r="4.4"/>
	<circle class="st4" cx="974.8" cy="486.7" r="4.4"/>
	<circle class="st4" cx="1008.4" cy="139.6" r="4.4"/>
	<circle class="st4" cx="905.4" cy="187.4" r="4.4"/>
	<circle class="st4" cx="983.2" cy="58.2" r="4.4"/>
	<circle class="st4" cx="1016.8" cy="611.1" r="4.4"/>
	<circle class="st4" cx="947.3" cy="635.1" r="4.4"/>
	<circle class="st4" cx="927" cy="617.1" r="4.4"/>
	<circle class="st4" cx="1016.8" cy="611.1" r="4.4"/>
	<circle class="st4" cx="927" cy="617.1" r="4.4"/>
	<circle class="st4" cx="1004.8" cy="505.7" r="4.4"/>
	<circle class="st4" cx="1016.8" cy="611.1" r="4.4"/>
	<circle class="st4" cx="949.7" cy="708.7" r="4.4"/>
	<circle class="st4" cx="947.3" cy="635.1" r="4.4"/>
	<circle class="st4" cx="1016.8" cy="248.5" r="4.4"/>
	<circle class="st4" cx="949.7" cy="300" r="4.4"/>
	<circle class="st4" cx="907.8" cy="255.7" r="4.4"/>
	<circle class="st4" cx="1016.8" cy="248.5" r="4.4"/>
	<circle class="st4" cx="907.8" cy="255.7" r="4.4"/>
	<circle class="st4" cx="905.4" cy="187.4" r="4.4"/>
	<circle class="st4" cx="1016.8" cy="248.5" r="4.4"/>
	<circle class="st4" cx="905.4" cy="187.4" r="4.4"/>
	<circle class="st4" cx="1008.4" cy="139.6" r="4.4"/>
	<circle class="st4" cx="1016.8" cy="248.5" r="4.4"/>
	<circle class="st4" cx="995.2" cy="315.6" r="4.4"/>
	<circle class="st4" cx="949.7" cy="300" r="4.4"/>
	<circle class="st4" cx="1025" cy="449.6" r="4.4"/>
	<circle class="st4" cx="1016.8" cy="611.1" r="4.4"/>
	<circle class="st4" cx="1004.8" cy="505.7" r="4.4"/>
	<circle class="st4" cx="1025" cy="449.6" r="4.4"/>
	<circle class="st4" cx="974.8" cy="486.7" r="4.4"/>
	<circle class="st4" cx="986.8" cy="417.2" r="4.4"/>
	<circle class="st4" cx="1025" cy="449.6" r="4.4"/>
	<circle class="st4" cx="1004.8" cy="505.7" r="4.4"/>
	<circle class="st4" cx="974.8" cy="486.7" r="4.4"/>
	<circle class="st4" cx="1068.1" cy="228.3" r="4.4"/>
	<circle class="st4" cx="1016.8" cy="248.5" r="4.4"/>
	<circle class="st4" cx="1008.4" cy="139.6" r="4.4"/>
	<circle class="st4" cx="1081.3" cy="346.7" r="4.4"/>
	<circle class="st4" cx="995.2" cy="315.6" r="4.4"/>
	<circle class="st4" cx="1016.8" cy="248.5" r="4.4"/>
	<circle class="st4" cx="1081.3" cy="346.7" r="4.4"/>
	<circle class="st4" cx="1016.8" cy="248.5" r="4.4"/>
	<circle class="st4" cx="1068.1" cy="228.3" r="4.4"/>
	<circle class="st4" cx="1081.3" cy="346.7" r="4.4"/>
	<circle class="st4" cx="1016.8" cy="611.1" r="4.4"/>
	<circle class="st4" cx="1025" cy="449.6" r="4.4"/>
	<circle class="st4" cx="1081.3" cy="346.7" r="4.4"/>
	<circle class="st4" cx="1025" cy="449.6" r="4.4"/>
	<circle class="st4" cx="986.8" cy="417.2" r="4.4"/>
	<circle class="st4" cx="1081.3" cy="346.7" r="4.4"/>
	<circle class="st4" cx="986.8" cy="417.2" r="4.4"/>
	<circle class="st4" cx="973.7" cy="381.3" r="4.4"/>
	<circle class="st4" cx="1081.3" cy="346.7" r="4.4"/>
	<circle class="st4" cx="973.7" cy="381.3" r="4.4"/>
	<circle class="st4" cx="995.2" cy="315.6" r="4.4"/>
	<circle class="st4" cx="1081.3" cy="346.7" r="4.4"/>
	<circle class="st4" cx="1068.1" cy="228.3" r="4.4"/>
	<circle class="st4" cx="1008.4" cy="139.6" r="4.4"/>
	<circle class="st4" cx="983.2" cy="58.2" r="4.4"/>
	<circle class="st4" cx="1068.1" cy="228.3" r="4.4"/>
	<circle class="st4" cx="1008.4" cy="139.6" r="4.4"/>
	<circle class="st4" cx="867.2" cy="5.6" r="4.4"/>
	<circle class="st4" cx="787" cy="-52.9" r="4.4"/>
	<circle class="st4" cx="983.2" cy="58.2" r="4.4"/>
	<circle class="st4" cx="867.2" cy="5.6" r="4.4"/>
	<circle class="st4" cx="662.5" cy="-58.9" r="4.4"/>
	<circle class="st4" cx="787" cy="-52.9" r="4.4"/>
	<circle class="st4" cx="662.5" cy="-58.9" r="4.4"/>
	<circle class="st4" cx="1081.3" cy="346.7" r="4.4"/>
	<circle class="st4" cx="1016.8" cy="611.1" r="4.4"/>
	<circle class="st4" cx="1081.3" cy="346.7" r="4.4"/>
	<circle class="st4" cx="856.4" cy="777.3" r="4.4"/>
	<circle class="st4" cx="949.7" cy="708.7" r="4.4"/>
	<circle class="st4" cx="949.7" cy="708.7" r="4.4"/>
	<circle class="st4" cx="1016.8" cy="611.1" r="4.4"/>
	<circle class="st4" cx="787" cy="814.5" r="4.4"/>
	<circle class="st4" cx="856.4" cy="777.3" r="4.4"/>
	<circle class="st4" cx="684.1" cy="843.2" r="4.4"/>
	<circle class="st4" cx="787" cy="814.5" r="4.4"/>
	<circle class="st4" cx="791.4" cy="-33.6" r="4.4"/>
	<circle class="st4" cx="861.3" cy="-7.9" r="4.4"/>
	<circle class="st4" cx="791.4" cy="-33.6" r="4.4"/>
	<circle class="st4" cx="791.4" cy="-33.6" r="4.4"/>
	<circle class="st4" cx="613" cy="-70.6" r="4.4"/>
	<circle class="st4" cx="791.4" cy="-33.6" r="4.4"/>
	<circle class="st4" cx="698.5" cy="-43.2" r="4.4"/>
	<circle class="st4" cx="613" cy="-70.6" r="4.4"/>
	<circle class="st4" cx="732.7" cy="3.5" r="4.4"/>
	<circle class="st4" cx="698.5" cy="-43.2" r="4.4"/>
	<circle class="st4" cx="791.4" cy="-33.6" r="4.4"/>
	<circle class="st4" cx="843.6" cy="38" r="4.4"/>
	<circle class="st4" cx="861.3" cy="-7.9" r="4.4"/>
	<circle class="st4" cx="887.4" cy="27.9" r="4.4"/>
	<circle class="st4" cx="843.6" cy="38" r="4.4"/>
	<circle class="st4" cx="791.4" cy="-33.6" r="4.4"/>
	<circle class="st4" cx="861.3" cy="-7.9" r="4.4"/>
	<circle class="st4" cx="843.6" cy="38" r="4.4"/>
	<circle class="st4" cx="732.7" cy="3.5" r="4.4"/>
	<circle class="st4" cx="791.4" cy="-33.6" r="4.4"/>
	<circle class="st4" cx="619.6" cy="-22.9" r="4.4"/>
	<circle class="st4" cx="613" cy="-70.6" r="4.4"/>
	<circle class="st4" cx="698.5" cy="-43.2" r="4.4"/>
	<circle class="st4" cx="543.6" cy="-40.2" r="4.4"/>
	<circle class="st4" cx="613" cy="-70.6" r="4.4"/>
	<circle class="st4" cx="619.6" cy="-22.9" r="4.4"/>
	<circle class="st4" cx="988" cy="99.2" r="4.4"/>
	<circle class="st4" cx="887.4" cy="27.9" r="4.4"/>
	<circle class="st4" cx="861.3" cy="-7.9" r="4.4"/>
	<circle class="st4" cx="988" cy="99.2" r="4.4"/>
	<circle class="st4" cx="954.9" cy="83.9" r="4.4"/>
	<circle class="st4" cx="887.4" cy="27.9" r="4.4"/>
	<circle class="st4" cx="988" cy="99.2" r="4.4"/>
	<circle class="st4" cx="861.3" cy="-7.9" r="4.4"/>
	<circle class="st4" cx="613" cy="-70.6" r="4.4"/>
	<circle class="st4" cx="613" cy="-70.6" r="4.4"/>
	<circle class="st4" cx="543.6" cy="-40.2" r="4.4"/>
	<circle class="st4" cx="543.6" cy="-40.2" r="4.4"/>
	<circle class="st4" cx="481.5" cy="-26.5" r="4.4"/>
	<circle class="st4" cx="948.3" cy="139.1" r="4.4"/>
	<circle class="st4" cx="954.9" cy="83.9" r="4.4"/>
	<circle class="st4" cx="988" cy="99.2" r="4.4"/>
	<circle class="st4" cx="625" cy="51.8" r="4.4"/>
	<circle class="st4" cx="543.6" cy="-40.2" r="4.4"/>
	<circle class="st4" cx="619.6" cy="-22.9" r="4.4"/>
	<circle class="st4" cx="625" cy="51.8" r="4.4"/>
	<circle class="st4" cx="698.5" cy="-43.2" r="4.4"/>
	<circle class="st4" cx="732.7" cy="3.5" r="4.4"/>
	<circle class="st4" cx="625" cy="51.8" r="4.4"/>
	<circle class="st4" cx="619.6" cy="-22.9" r="4.4"/>
	<circle class="st4" cx="698.5" cy="-43.2" r="4.4"/>
	<circle class="st4" cx="1001.3" cy="158.8" r="4.4"/>
	<circle class="st4" cx="948.3" cy="139.1" r="4.4"/>
	<circle class="st4" cx="988" cy="99.2" r="4.4"/>
	<circle class="st4" cx="862.5" cy="148.9" r="4.4"/>
	<circle class="st4" cx="887.4" cy="27.9" r="4.4"/>
	<circle class="st4" cx="954.9" cy="83.9" r="4.4"/>
	<circle class="st4" cx="862.5" cy="148.9" r="4.4"/>
	<circle class="st4" cx="954.9" cy="83.9" r="4.4"/>
	<circle class="st4" cx="948.3" cy="139.1" r="4.4"/>
	<circle class="st4" cx="862.5" cy="148.9" r="4.4"/>
	<circle class="st4" cx="843.6" cy="38" r="4.4"/>
	<circle class="st4" cx="887.4" cy="27.9" r="4.4"/>
	<circle class="st4" cx="1065.5" cy="217.8" r="4.4"/>
	<circle class="st4" cx="988" cy="99.2" r="4.4"/>
	<circle class="st4" cx="1065.5" cy="217.8" r="4.4"/>
	<circle class="st4" cx="1001.3" cy="158.8" r="4.4"/>
	<circle class="st4" cx="988" cy="99.2" r="4.4"/>
	<circle class="st4" cx="742.6" cy="137.9" r="4.4"/>
	<circle class="st4" cx="625" cy="51.8" r="4.4"/>
	<circle class="st4" cx="732.7" cy="3.5" r="4.4"/>
	<circle class="st4" cx="742.6" cy="137.9" r="4.4"/>
	<circle class="st4" cx="732.7" cy="3.5" r="4.4"/>
	<circle class="st4" cx="843.6" cy="38" r="4.4"/>
	<circle class="st4" cx="742.6" cy="137.9" r="4.4"/>
	<circle class="st4" cx="843.6" cy="38" r="4.4"/>
	<circle class="st4" cx="862.5" cy="148.9" r="4.4"/>
	<circle class="st4" cx="367.2" cy="36.2" r="4.4"/>
	<circle class="st4" cx="481.5" cy="-26.5" r="4.4"/>
	<circle class="st4" cx="367.2" cy="36.2" r="4.4"/>
	<circle class="st4" cx="502.2" cy="82.3" r="4.4"/>
	<circle class="st4" cx="481.5" cy="-26.5" r="4.4"/>
	<circle class="st4" cx="543.6" cy="-40.2" r="4.4"/>
	<circle class="st4" cx="502.2" cy="82.3" r="4.4"/>
	<circle class="st4" cx="543.6" cy="-40.2" r="4.4"/>
	<circle class="st4" cx="625" cy="51.8" r="4.4"/>
	<circle class="st4" cx="400.9" cy="94" r="4.4"/>
	<circle class="st4" cx="367.2" cy="36.2" r="4.4"/>
	<circle class="st4" cx="481.5" cy="-26.5" r="4.4"/>
	<circle class="st4" cx="400.9" cy="94" r="4.4"/>
	<circle class="st4" cx="481.5" cy="-26.5" r="4.4"/>
	<circle class="st4" cx="502.2" cy="82.3" r="4.4"/>
	<circle class="st4" cx="340.2" cy="93.2" r="4.4"/>
	<circle class="st4" cx="367.2" cy="36.2" r="4.4"/>
	<circle class="st4" cx="400.9" cy="94" r="4.4"/>
	<circle class="st4" cx="289.4" cy="84.1" r="4.4"/>
	<circle class="st4" cx="367.2" cy="36.2" r="4.4"/>
	<circle class="st4" cx="340.2" cy="93.2" r="4.4"/>
	<circle class="st4" cx="289.4" cy="84.1" r="4.4"/>
	<circle class="st4" cx="367.2" cy="36.2" r="4.4"/>
	<circle class="st4" cx="289.4" cy="84.1" r="4.4"/>
	<circle class="st4" cx="675.7" cy="195.1" r="4.4"/>
	<circle class="st4" cx="625" cy="51.8" r="4.4"/>
	<circle class="st4" cx="742.6" cy="137.9" r="4.4"/>
	<circle class="st4" cx="955.8" cy="273" r="4.4"/>
	<circle class="st4" cx="862.5" cy="148.9" r="4.4"/>
	<circle class="st4" cx="948.3" cy="139.1" r="4.4"/>
	<circle class="st4" cx="955.8" cy="273" r="4.4"/>
	<circle class="st4" cx="948.3" cy="139.1" r="4.4"/>
	<circle class="st4" cx="1001.3" cy="158.8" r="4.4"/>
	<circle class="st4" cx="955.8" cy="273" r="4.4"/>
	<circle class="st4" cx="1001.3" cy="158.8" r="4.4"/>
	<circle class="st4" cx="1065.5" cy="217.8" r="4.4"/>
	<circle class="st4" cx="955.8" cy="273" r="4.4"/>
	<circle class="st4" cx="1065.5" cy="217.8" r="4.4"/>
	<circle class="st4" cx="1062.2" cy="301.2" r="4.4"/>
	<circle class="st4" cx="771.6" cy="247.8" r="4.4"/>
	<circle class="st4" cx="742.6" cy="137.9" r="4.4"/>
	<circle class="st4" cx="862.5" cy="148.9" r="4.4"/>
	<circle class="st4" cx="771.6" cy="247.8" r="4.4"/>
	<circle class="st4" cx="675.7" cy="195.1" r="4.4"/>
	<circle class="st4" cx="742.6" cy="137.9" r="4.4"/>
	<circle class="st4" cx="599.6" cy="201.3" r="4.4"/>
	<circle class="st4" cx="675.7" cy="195.1" r="4.4"/>
	<circle class="st4" cx="771.6" cy="247.8" r="4.4"/>
	<circle class="st4" cx="599.6" cy="201.3" r="4.4"/>
	<circle class="st4" cx="625" cy="51.8" r="4.4"/>
	<circle class="st4" cx="675.7" cy="195.1" r="4.4"/>
	<circle class="st4" cx="579.1" cy="199.3" r="4.4"/>
	<circle class="st4" cx="502.2" cy="82.3" r="4.4"/>
	<circle class="st4" cx="625" cy="51.8" r="4.4"/>
	<circle class="st4" cx="579.1" cy="199.3" r="4.4"/>
	<circle class="st4" cx="625" cy="51.8" r="4.4"/>
	<circle class="st4" cx="599.6" cy="201.3" r="4.4"/>
	<circle class="st4" cx="1070.5" cy="343.2" r="4.4"/>
	<circle class="st4" cx="1065.5" cy="217.8" r="4.4"/>
	<circle class="st4" cx="1070.5" cy="343.2" r="4.4"/>
	<circle class="st4" cx="1062.2" cy="301.2" r="4.4"/>
	<circle class="st4" cx="1065.5" cy="217.8" r="4.4"/>
	<circle class="st4" cx="810.9" cy="276.1" r="4.4"/>
	<circle class="st4" cx="862.5" cy="148.9" r="4.4"/>
	<circle class="st4" cx="955.8" cy="273" r="4.4"/>
	<circle class="st4" cx="810.9" cy="276.1" r="4.4"/>
	<circle class="st4" cx="771.6" cy="247.8" r="4.4"/>
	<circle class="st4" cx="862.5" cy="148.9" r="4.4"/>
	<circle class="st4" cx="1012.1" cy="334.5" r="4.4"/>
	<circle class="st4" cx="955.8" cy="273" r="4.4"/>
	<circle class="st4" cx="1062.2" cy="301.2" r="4.4"/>
	<circle class="st4" cx="1012.1" cy="334.5" r="4.4"/>
	<circle class="st4" cx="1062.2" cy="301.2" r="4.4"/>
	<circle class="st4" cx="1070.5" cy="343.2" r="4.4"/>
	<circle class="st4" cx="369.9" cy="178.4" r="4.4"/>
	<circle class="st4" cx="340.2" cy="93.2" r="4.4"/>
	<circle class="st4" cx="400.9" cy="94" r="4.4"/>
	<circle class="st4" cx="823.2" cy="321.7" r="4.4"/>
	<circle class="st4" cx="810.9" cy="276.1" r="4.4"/>
	<circle class="st4" cx="955.8" cy="273" r="4.4"/>
	<circle class="st4" cx="823.2" cy="321.7" r="4.4"/>
	<circle class="st4" cx="771.6" cy="247.8" r="4.4"/>
	<circle class="st4" cx="810.9" cy="276.1" r="4.4"/>
	<circle class="st4" cx="242.5" cy="167.9" r="4.4"/>
	<circle class="st4" cx="289.4" cy="84.1" r="4.4"/>
	<circle class="st4" cx="340.2" cy="93.2" r="4.4"/>
	<circle class="st4" cx="242.5" cy="167.9" r="4.4"/>
	<circle class="st4" cx="340.2" cy="93.2" r="4.4"/>
	<circle class="st4" cx="369.9" cy="178.4" r="4.4"/>
	<circle class="st4" cx="289.4" cy="84.1" r="4.4"/>
	<circle class="st4" cx="242.5" cy="167.9" r="4.4"/>
	<circle class="st4" cx="503.9" cy="241.8" r="4.4"/>
	<circle class="st4" cx="579.1" cy="199.3" r="4.4"/>
	<circle class="st4" cx="599.6" cy="201.3" r="4.4"/>
	<circle class="st4" cx="503.9" cy="241.8" r="4.4"/>
	<circle class="st4" cx="502.2" cy="82.3" r="4.4"/>
	<circle class="st4" cx="579.1" cy="199.3" r="4.4"/>
	<circle class="st4" cx="503.9" cy="241.8" r="4.4"/>
	<circle class="st4" cx="400.9" cy="94" r="4.4"/>
	<circle class="st4" cx="502.2" cy="82.3" r="4.4"/>
	<circle class="st4" cx="503.9" cy="241.8" r="4.4"/>
	<circle class="st4" cx="369.9" cy="178.4" r="4.4"/>
	<circle class="st4" cx="400.9" cy="94" r="4.4"/>
	<ellipse class="st4" cx="1088.3" cy="417.8" rx="4.4" ry="4.4"/>
	<circle class="st4" cx="1012.1" cy="334.5" r="4.4"/>
	<circle class="st4" cx="1070.5" cy="343.2" r="4.4"/>
	<ellipse class="st4" cx="1088.3" cy="417.8" rx="4.4" ry="4.4"/>
	<circle class="st4" cx="1070.5" cy="343.2" r="4.4"/>
	<circle class="st4" cx="484.2" cy="272.2" r="4.4"/>
	<circle class="st4" cx="503.9" cy="241.8" r="4.4"/>
	<circle class="st4" cx="599.6" cy="201.3" r="4.4"/>
	<circle class="st4" cx="484.2" cy="272.2" r="4.4"/>
	<circle class="st4" cx="369.9" cy="178.4" r="4.4"/>
	<circle class="st4" cx="503.9" cy="241.8" r="4.4"/>
	<circle class="st4" cx="834.6" cy="396.9" r="4.4"/>
	<circle class="st4" cx="484.2" cy="272.2" r="4.4"/>
	<circle class="st4" cx="599.6" cy="201.3" r="4.4"/>
	<circle class="st4" cx="599.6" cy="201.3" r="4.4"/>
	<circle class="st4" cx="771.6" cy="247.8" r="4.4"/>
	<circle class="st4" cx="834.6" cy="396.9" r="4.4"/>
	<circle class="st4" cx="771.6" cy="247.8" r="4.4"/>
	<circle class="st4" cx="823.2" cy="321.7" r="4.4"/>
	<circle class="st4" cx="834.6" cy="396.9" r="4.4"/>
	<circle class="st4" cx="834.6" cy="396.9" r="4.4"/>
	<circle class="st4" cx="955.8" cy="273" r="4.4"/>
	<circle class="st4" cx="1012.1" cy="334.5" r="4.4"/>
	<circle class="st4" cx="834.6" cy="396.9" r="4.4"/>
	<circle class="st4" cx="823.2" cy="321.7" r="4.4"/>
	<circle class="st4" cx="955.8" cy="273" r="4.4"/>
	<circle class="st4" cx="292.1" cy="257.4" r="4.4"/>
	<circle class="st4" cx="242.5" cy="167.9" r="4.4"/>
	<circle class="st4" cx="369.9" cy="178.4" r="4.4"/>
	<circle class="st4" cx="292.1" cy="257.4" r="4.4"/>
	<circle class="st4" cx="254.3" cy="237" r="4.4"/>
	<circle class="st4" cx="242.5" cy="167.9" r="4.4"/>
	<circle class="st4" cx="960.6" cy="448.1" r="4.4"/>
	<circle class="st4" cx="834.6" cy="396.9" r="4.4"/>
	<circle class="st4" cx="1012.1" cy="334.5" r="4.4"/>
	<circle class="st4" cx="960.6" cy="448.1" r="4.4"/>
	<circle class="st4" cx="1012.1" cy="334.5" r="4.4"/>
	<ellipse class="st4" cx="1088.3" cy="417.8" rx="4.4" ry="4.4"/>
	<circle class="st4" cx="441.5" cy="310" r="4.4"/>
	<circle class="st4" cx="369.9" cy="178.4" r="4.4"/>
	<circle class="st4" cx="484.2" cy="272.2" r="4.4"/>
	<circle class="st4" cx="441.5" cy="310" r="4.4"/>
	<circle class="st4" cx="292.1" cy="257.4" r="4.4"/>
	<circle class="st4" cx="369.9" cy="178.4" r="4.4"/>
	<circle class="st4" cx="837.9" cy="433.8" r="4.4"/>
	<circle class="st4" cx="834.6" cy="396.9" r="4.4"/>
	<circle class="st4" cx="960.6" cy="448.1" r="4.4"/>
	<circle class="st4" cx="1023.7" cy="489.2" r="4.4"/>
	<ellipse class="st4" cx="1088.3" cy="417.8" rx="4.4" ry="4.4"/>
	<circle class="st4" cx="1065.8" cy="476" r="4.4"/>
	<circle class="st4" cx="1023.7" cy="489.2" r="4.4"/>
	<circle class="st4" cx="960.6" cy="448.1" r="4.4"/>
	<ellipse class="st4" cx="1088.3" cy="417.8" rx="4.4" ry="4.4"/>
	<circle class="st4" cx="823.3" cy="468.4" r="4.4"/>
	<circle class="st4" cx="837.9" cy="433.8" r="4.4"/>
	<circle class="st4" cx="960.6" cy="448.1" r="4.4"/>
	<circle class="st4" cx="823.3" cy="468.4" r="4.4"/>
	<circle class="st4" cx="834.6" cy="396.9" r="4.4"/>
	<circle class="st4" cx="837.9" cy="433.8" r="4.4"/>
	<circle class="st4" cx="395.7" cy="349.5" r="4.4"/>
	<circle class="st4" cx="292.1" cy="257.4" r="4.4"/>
	<circle class="st4" cx="441.5" cy="310" r="4.4"/>
	<circle class="st4" cx="306.6" cy="325.9" r="4.4"/>
	<circle class="st4" cx="254.3" cy="237" r="4.4"/>
	<circle class="st4" cx="292.1" cy="257.4" r="4.4"/>
	<circle class="st4" cx="306.6" cy="325.9" r="4.4"/>
	<circle class="st4" cx="292.1" cy="257.4" r="4.4"/>
	<circle class="st4" cx="395.7" cy="349.5" r="4.4"/>
	<circle class="st4" cx="1052.5" cy="546.8" r="4.4"/>
	<circle class="st4" cx="1023.7" cy="489.2" r="4.4"/>
	<circle class="st4" cx="1065.8" cy="476" r="4.4"/>
	<circle class="st4" cx="1052.5" cy="546.8" r="4.4"/>
	<ellipse class="st4" cx="1088.3" cy="417.8" rx="4.4" ry="4.4"/>
	<circle class="st4" cx="1052.5" cy="546.8" r="4.4"/>
	<circle class="st4" cx="1065.8" cy="476" r="4.4"/>
	<ellipse class="st4" cx="1088.3" cy="417.8" rx="4.4" ry="4.4"/>
	<circle class="st4" cx="974.9" cy="526.6" r="4.4"/>
	<circle class="st4" cx="823.3" cy="468.4" r="4.4"/>
	<circle class="st4" cx="960.6" cy="448.1" r="4.4"/>
	<circle class="st4" cx="974.9" cy="526.6" r="4.4"/>
	<circle class="st4" cx="960.6" cy="448.1" r="4.4"/>
	<circle class="st4" cx="1023.7" cy="489.2" r="4.4"/>
	<circle class="st4" cx="974.9" cy="526.6" r="4.4"/>
	<circle class="st4" cx="1023.7" cy="489.2" r="4.4"/>
	<circle class="st4" cx="1052.5" cy="546.8" r="4.4"/>
	<circle class="st4" cx="177.4" cy="326.1" r="4.4"/>
	<circle class="st4" cx="254.3" cy="237" r="4.4"/>
	<circle class="st4" cx="306.6" cy="325.9" r="4.4"/>
	<circle class="st4" cx="177.4" cy="326.1" r="4.4"/>
	<circle class="st4" cx="242.5" cy="167.9" r="4.4"/>
	<circle class="st4" cx="254.3" cy="237" r="4.4"/>
	<circle class="st4" cx="242.5" cy="167.9" r="4.4"/>
	<circle class="st4" cx="177.4" cy="326.1" r="4.4"/>
	<circle class="st4" cx="422.8" cy="421.7" r="4.4"/>
	<circle class="st4" cx="395.7" cy="349.5" r="4.4"/>
	<circle class="st4" cx="441.5" cy="310" r="4.4"/>
	<circle class="st4" cx="185" cy="356.9" r="4.4"/>
	<circle class="st4" cx="177.4" cy="326.1" r="4.4"/>
	<circle class="st4" cx="306.6" cy="325.9" r="4.4"/>
	<circle class="st4" cx="296.8" cy="392.9" r="4.4"/>
	<circle class="st4" cx="185" cy="356.9" r="4.4"/>
	<circle class="st4" cx="306.6" cy="325.9" r="4.4"/>
	<circle class="st4" cx="296.8" cy="392.9" r="4.4"/>
	<circle class="st4" cx="306.6" cy="325.9" r="4.4"/>
	<circle class="st4" cx="395.7" cy="349.5" r="4.4"/>
	<circle class="st4" cx="1010.5" cy="599.8" r="4.4"/>
	<circle class="st4" cx="974.9" cy="526.6" r="4.4"/>
	<circle class="st4" cx="1052.5" cy="546.8" r="4.4"/>
	<circle class="st4" cx="442.2" cy="445.7" r="4.4"/>
	<circle class="st4" cx="441.5" cy="310" r="4.4"/>
	<circle class="st4" cx="484.2" cy="272.2" r="4.4"/>
	<circle class="st4" cx="442.2" cy="445.7" r="4.4"/>
	<circle class="st4" cx="422.8" cy="421.7" r="4.4"/>
	<circle class="st4" cx="441.5" cy="310" r="4.4"/>
	<circle class="st4" cx="442.2" cy="445.7" r="4.4"/>
	<circle class="st4" cx="484.2" cy="272.2" r="4.4"/>
	<circle class="st4" cx="834.6" cy="396.9" r="4.4"/>
	<circle class="st4" cx="442.2" cy="445.7" r="4.4"/>
	<circle class="st4" cx="834.6" cy="396.9" r="4.4"/>
	<circle class="st4" cx="823.3" cy="468.4" r="4.4"/>
	<circle class="st4" cx="787.2" cy="545.2" r="4.4"/>
	<circle class="st4" cx="823.3" cy="468.4" r="4.4"/>
	<circle class="st4" cx="974.9" cy="526.6" r="4.4"/>
	<circle class="st4" cx="337.2" cy="443.7" r="4.4"/>
	<circle class="st4" cx="422.8" cy="421.7" r="4.4"/>
	<circle class="st4" cx="442.2" cy="445.7" r="4.4"/>
	<circle class="st4" cx="337.2" cy="443.7" r="4.4"/>
	<circle class="st4" cx="395.7" cy="349.5" r="4.4"/>
	<circle class="st4" cx="422.8" cy="421.7" r="4.4"/>
	<circle class="st4" cx="337.2" cy="443.7" r="4.4"/>
	<circle class="st4" cx="296.8" cy="392.9" r="4.4"/>
	<circle class="st4" cx="395.7" cy="349.5" r="4.4"/>
	<circle class="st4" cx="446.1" cy="485.3" r="4.4"/>
	<circle class="st4" cx="337.2" cy="443.7" r="4.4"/>
	<circle class="st4" cx="442.2" cy="445.7" r="4.4"/>
	<circle class="st4" cx="724.6" cy="582.4" r="4.4"/>
	<circle class="st4" cx="823.3" cy="468.4" r="4.4"/>
	<circle class="st4" cx="787.2" cy="545.2" r="4.4"/>
	<circle class="st4" cx="177.5" cy="432.9" r="4.4"/>
	<circle class="st4" cx="185" cy="356.9" r="4.4"/>
	<circle class="st4" cx="296.8" cy="392.9" r="4.4"/>
	<circle class="st4" cx="177.5" cy="432.9" r="4.4"/>
	<circle class="st4" cx="177.4" cy="326.1" r="4.4"/>
	<circle class="st4" cx="185" cy="356.9" r="4.4"/>
	<circle class="st4" cx="1010.5" cy="599.8" r="4.4"/>
	<circle class="st4" cx="1052.5" cy="546.8" r="4.4"/>
	<circle class="st4" cx="495.2" cy="554.8" r="4.4"/>
	<circle class="st4" cx="446.1" cy="485.3" r="4.4"/>
	<circle class="st4" cx="442.2" cy="445.7" r="4.4"/>
	<circle class="st4" cx="859.7" cy="659.7" r="4.4"/>
	<circle class="st4" cx="1010.5" cy="599.8" r="4.4"/>
	<circle class="st4" cx="859.7" cy="659.7" r="4.4"/>
	<circle class="st4" cx="974.9" cy="526.6" r="4.4"/>
	<circle class="st4" cx="1010.5" cy="599.8" r="4.4"/>
	<circle class="st4" cx="859.7" cy="659.7" r="4.4"/>
	<circle class="st4" cx="787.2" cy="545.2" r="4.4"/>
	<circle class="st4" cx="974.9" cy="526.6" r="4.4"/>
	<circle class="st4" cx="607.7" cy="600.9" r="4.4"/>
	<circle class="st4" cx="724.6" cy="582.4" r="4.4"/>
	<circle class="st4" cx="672.2" cy="610.2" r="4.4"/>
	<circle class="st4" cx="823.3" cy="468.4" r="4.4"/>
	<circle class="st4" cx="607.7" cy="600.9" r="4.4"/>
	<circle class="st4" cx="442.2" cy="445.7" r="4.4"/>
	<circle class="st4" cx="823.3" cy="468.4" r="4.4"/>
	<circle class="st4" cx="724.6" cy="582.4" r="4.4"/>
	<circle class="st4" cx="607.7" cy="600.9" r="4.4"/>
	<circle class="st4" cx="546.6" cy="583.9" r="4.4"/>
	<circle class="st4" cx="495.2" cy="554.8" r="4.4"/>
	<circle class="st4" cx="442.2" cy="445.7" r="4.4"/>
	<circle class="st4" cx="607.7" cy="600.9" r="4.4"/>
	<circle class="st4" cx="546.6" cy="583.9" r="4.4"/>
	<circle class="st4" cx="442.2" cy="445.7" r="4.4"/>
	<circle class="st4" cx="253.9" cy="502.6" r="4.4"/>
	<circle class="st4" cx="296.8" cy="392.9" r="4.4"/>
	<circle class="st4" cx="337.2" cy="443.7" r="4.4"/>
	<circle class="st4" cx="253.9" cy="502.6" r="4.4"/>
	<circle class="st4" cx="177.5" cy="432.9" r="4.4"/>
	<circle class="st4" cx="296.8" cy="392.9" r="4.4"/>
	<circle class="st4" cx="792.6" cy="659.7" r="4.4"/>
	<circle class="st4" cx="724.6" cy="582.4" r="4.4"/>
	<circle class="st4" cx="787.2" cy="545.2" r="4.4"/>
	<circle class="st4" cx="792.6" cy="659.7" r="4.4"/>
	<circle class="st4" cx="787.2" cy="545.2" r="4.4"/>
	<circle class="st4" cx="859.7" cy="659.7" r="4.4"/>
	<circle class="st4" cx="373.8" cy="544.6" r="4.4"/>
	<circle class="st4" cx="337.2" cy="443.7" r="4.4"/>
	<circle class="st4" cx="446.1" cy="485.3" r="4.4"/>
	<circle class="st4" cx="194.8" cy="509.8" r="4.4"/>
	<circle class="st4" cx="177.5" cy="432.9" r="4.4"/>
	<circle class="st4" cx="253.9" cy="502.6" r="4.4"/>
	<circle class="st4" cx="574.9" cy="616.6" r="4.4"/>
	<circle class="st4" cx="546.6" cy="583.9" r="4.4"/>
	<circle class="st4" cx="607.7" cy="600.9" r="4.4"/>
	<circle class="st4" cx="389.7" cy="567.7" r="4.4"/>
	<circle class="st4" cx="446.1" cy="485.3" r="4.4"/>
	<circle class="st4" cx="495.2" cy="554.8" r="4.4"/>
	<circle class="st4" cx="389.7" cy="567.7" r="4.4"/>
	<circle class="st4" cx="373.8" cy="544.6" r="4.4"/>
	<circle class="st4" cx="446.1" cy="485.3" r="4.4"/>
	<circle class="st4" cx="859.7" cy="659.7" r="4.4"/>
	<circle class="st4" cx="280.6" cy="544.7" r="4.4"/>
	<circle class="st4" cx="253.9" cy="502.6" r="4.4"/>
	<circle class="st4" cx="337.2" cy="443.7" r="4.4"/>
	<circle class="st4" cx="280.6" cy="544.7" r="4.4"/>
	<circle class="st4" cx="337.2" cy="443.7" r="4.4"/>
	<circle class="st4" cx="373.8" cy="544.6" r="4.4"/>
	<circle class="st4" cx="438" cy="608.4" r="4.4"/>
	<circle class="st4" cx="495.2" cy="554.8" r="4.4"/>
	<circle class="st4" cx="546.6" cy="583.9" r="4.4"/>
	<circle class="st4" cx="438" cy="608.4" r="4.4"/>
	<circle class="st4" cx="389.7" cy="567.7" r="4.4"/>
	<circle class="st4" cx="495.2" cy="554.8" r="4.4"/>
	<circle class="st4" cx="750" cy="714.9" r="4.4"/>
	<circle class="st4" cx="792.6" cy="659.7" r="4.4"/>
	<circle class="st4" cx="859.7" cy="659.7" r="4.4"/>
	<circle class="st4" cx="683.6" cy="699" r="4.4"/>
	<circle class="st4" cx="792.6" cy="659.7" r="4.4"/>
	<circle class="st4" cx="750" cy="714.9" r="4.4"/>
	<circle class="st4" cx="683.6" cy="699" r="4.4"/>
	<circle class="st4" cx="607.7" cy="600.9" r="4.4"/>
	<circle class="st4" cx="672.2" cy="610.2" r="4.4"/>
	<circle class="st4" cx="683.6" cy="699" r="4.4"/>
	<circle class="st4" cx="672.2" cy="610.2" r="4.4"/>
	<circle class="st4" cx="724.6" cy="582.4" r="4.4"/>
	<circle class="st4" cx="683.6" cy="699" r="4.4"/>
	<circle class="st4" cx="724.6" cy="582.4" r="4.4"/>
	<circle class="st4" cx="792.6" cy="659.7" r="4.4"/>
	<circle class="st4" cx="244.6" cy="580.7" r="4.4"/>
	<circle class="st4" cx="194.8" cy="509.8" r="4.4"/>
	<circle class="st4" cx="253.9" cy="502.6" r="4.4"/>
	<circle class="st4" cx="244.6" cy="580.7" r="4.4"/>
	<circle class="st4" cx="253.9" cy="502.6" r="4.4"/>
	<circle class="st4" cx="280.6" cy="544.7" r="4.4"/>
	<circle class="st4" cx="528.3" cy="672" r="4.4"/>
	<circle class="st4" cx="546.6" cy="583.9" r="4.4"/>
	<circle class="st4" cx="574.9" cy="616.6" r="4.4"/>
	<circle class="st4" cx="528.3" cy="672" r="4.4"/>
	<circle class="st4" cx="438" cy="608.4" r="4.4"/>
	<circle class="st4" cx="546.6" cy="583.9" r="4.4"/>
	<circle class="st4" cx="330.3" cy="620.7" r="4.4"/>
	<circle class="st4" cx="389.7" cy="567.7" r="4.4"/>
	<circle class="st4" cx="438" cy="608.4" r="4.4"/>
	<circle class="st4" cx="330.3" cy="620.7" r="4.4"/>
	<circle class="st4" cx="373.8" cy="544.6" r="4.4"/>
	<circle class="st4" cx="389.7" cy="567.7" r="4.4"/>
	<circle class="st4" cx="330.3" cy="620.7" r="4.4"/>
	<circle class="st4" cx="280.6" cy="544.7" r="4.4"/>
	<circle class="st4" cx="373.8" cy="544.6" r="4.4"/>
	<circle class="st4" cx="307.6" cy="635.5" r="4.4"/>
	<circle class="st4" cx="244.6" cy="580.7" r="4.4"/>
	<circle class="st4" cx="280.6" cy="544.7" r="4.4"/>
	<circle class="st4" cx="307.6" cy="635.5" r="4.4"/>
	<circle class="st4" cx="280.6" cy="544.7" r="4.4"/>
	<circle class="st4" cx="330.3" cy="620.7" r="4.4"/>
	<circle class="st4" cx="629.8" cy="727.5" r="4.4"/>
	<circle class="st4" cx="528.3" cy="672" r="4.4"/>
	<circle class="st4" cx="574.9" cy="616.6" r="4.4"/>
	<circle class="st4" cx="629.8" cy="727.5" r="4.4"/>
	<circle class="st4" cx="574.9" cy="616.6" r="4.4"/>
	<circle class="st4" cx="607.7" cy="600.9" r="4.4"/>
	<circle class="st4" cx="629.8" cy="727.5" r="4.4"/>
	<circle class="st4" cx="607.7" cy="600.9" r="4.4"/>
	<circle class="st4" cx="683.6" cy="699" r="4.4"/>
	<circle class="st4" cx="545" cy="728.7" r="4.4"/>
	<circle class="st4" cx="528.3" cy="672" r="4.4"/>
	<circle class="st4" cx="629.8" cy="727.5" r="4.4"/>
	<circle class="st4" cx="443.1" cy="701.7" r="4.4"/>
	<circle class="st4" cx="438" cy="608.4" r="4.4"/>
	<circle class="st4" cx="528.3" cy="672" r="4.4"/>
	<circle class="st4" cx="443.1" cy="701.7" r="4.4"/>
	<circle class="st4" cx="330.3" cy="620.7" r="4.4"/>
	<circle class="st4" cx="438" cy="608.4" r="4.4"/>
	<circle class="st4" cx="883.4" cy="770.9" r="4.4"/>
	<circle class="st4" cx="859.7" cy="659.7" r="4.4"/>
	<circle class="st4" cx="883.4" cy="770.9" r="4.4"/>
	<circle class="st4" cx="750" cy="714.9" r="4.4"/>
	<circle class="st4" cx="859.7" cy="659.7" r="4.4"/>
	<circle class="st4" cx="506.9" cy="731.9" r="4.4"/>
	<circle class="st4" cx="528.3" cy="672" r="4.4"/>
	<circle class="st4" cx="545" cy="728.7" r="4.4"/>
	<circle class="st4" cx="506.9" cy="731.9" r="4.4"/>
	<circle class="st4" cx="443.1" cy="701.7" r="4.4"/>
	<circle class="st4" cx="528.3" cy="672" r="4.4"/>
	<circle class="st4" cx="602.6" cy="767.1" r="4.4"/>
	<circle class="st4" cx="545" cy="728.7" r="4.4"/>
	<circle class="st4" cx="629.8" cy="727.5" r="4.4"/>
	<circle class="st4" cx="416.7" cy="725.4" r="4.4"/>
	<circle class="st4" cx="330.3" cy="620.7" r="4.4"/>
	<circle class="st4" cx="443.1" cy="701.7" r="4.4"/>
	<circle class="st4" cx="768.6" cy="826.8" r="4.4"/>
	<circle class="st4" cx="750" cy="714.9" r="4.4"/>
	<circle class="st4" cx="883.4" cy="770.9" r="4.4"/>
	<circle class="st4" cx="312.1" cy="708.7" r="4.4"/>
	<circle class="st4" cx="307.6" cy="635.5" r="4.4"/>
	<circle class="st4" cx="330.3" cy="620.7" r="4.4"/>
	<circle class="st4" cx="312.1" cy="708.7" r="4.4"/>
	<circle class="st4" cx="330.3" cy="620.7" r="4.4"/>
	<circle class="st4" cx="416.7" cy="725.4" r="4.4"/>
	<circle class="st4" cx="312.1" cy="708.7" r="4.4"/>
	<circle class="st4" cx="244.6" cy="580.7" r="4.4"/>
	<circle class="st4" cx="307.6" cy="635.5" r="4.4"/>
	<circle class="st4" cx="661.4" cy="805.8" r="4.4"/>
	<circle class="st4" cx="629.8" cy="727.5" r="4.4"/>
	<circle class="st4" cx="683.6" cy="699" r="4.4"/>
	<circle class="st4" cx="661.4" cy="805.8" r="4.4"/>
	<circle class="st4" cx="683.6" cy="699" r="4.4"/>
	<circle class="st4" cx="750" cy="714.9" r="4.4"/>
	<circle class="st4" cx="661.4" cy="805.8" r="4.4"/>
	<circle class="st4" cx="750" cy="714.9" r="4.4"/>
	<circle class="st4" cx="768.6" cy="826.8" r="4.4"/>
	<circle class="st4" cx="661.4" cy="805.8" r="4.4"/>
	<circle class="st4" cx="602.6" cy="767.1" r="4.4"/>
	<circle class="st4" cx="629.8" cy="727.5" r="4.4"/>
	<circle class="st4" cx="465.5" cy="760.1" r="4.4"/>
	<circle class="st4" cx="312.1" cy="708.7" r="4.4"/>
	<circle class="st4" cx="416.7" cy="725.4" r="4.4"/>
	<circle class="st4" cx="465.5" cy="760.1" r="4.4"/>
	<circle class="st4" cx="443.1" cy="701.7" r="4.4"/>
	<circle class="st4" cx="506.9" cy="731.9" r="4.4"/>
	<circle class="st4" cx="465.5" cy="760.1" r="4.4"/>
	<circle class="st4" cx="416.7" cy="725.4" r="4.4"/>
	<circle class="st4" cx="443.1" cy="701.7" r="4.4"/>
	<circle class="st4" cx="667.1" cy="860.7" r="4.4"/>
	<circle class="st4" cx="661.4" cy="805.8" r="4.4"/>
	<circle class="st4" cx="768.6" cy="826.8" r="4.4"/>
	<circle class="st4" cx="549.5" cy="841.8" r="4.4"/>
	<circle class="st4" cx="602.6" cy="767.1" r="4.4"/>
	<circle class="st4" cx="661.4" cy="805.8" r="4.4"/>
	<circle class="st4" cx="549.5" cy="841.8" r="4.4"/>
	<circle class="st4" cx="661.4" cy="805.8" r="4.4"/>
	<circle class="st4" cx="667.1" cy="860.7" r="4.4"/>
	<circle class="st4" cx="549.5" cy="841.8" r="4.4"/>
	<circle class="st4" cx="312.1" cy="708.7" r="4.4"/>
	<circle class="st4" cx="465.5" cy="760.1" r="4.4"/>
	<circle class="st4" cx="549.5" cy="841.8" r="4.4"/>
	<circle class="st4" cx="465.5" cy="760.1" r="4.4"/>
	<circle class="st4" cx="506.9" cy="731.9" r="4.4"/>
	<circle class="st4" cx="549.5" cy="841.8" r="4.4"/>
	<circle class="st4" cx="506.9" cy="731.9" r="4.4"/>
	<circle class="st4" cx="545" cy="728.7" r="4.4"/>
	<circle class="st4" cx="549.5" cy="841.8" r="4.4"/>
	<circle class="st4" cx="545" cy="728.7" r="4.4"/>
	<circle class="st4" cx="602.6" cy="767.1" r="4.4"/>
	<circle class="st4" cx="549.5" cy="841.8" r="4.4"/>
	<circle class="st4" cx="667.1" cy="860.7" r="4.4"/>
	<circle class="st4" cx="768.6" cy="826.8" r="4.4"/>
	<circle class="st4" cx="883.4" cy="770.9" r="4.4"/>
	<circle class="st4" cx="667.1" cy="860.7" r="4.4"/>
	<circle class="st4" cx="768.6" cy="826.8" r="4.4"/>
	<circle class="st4" cx="883.4" cy="770.9" r="4.4"/>
	<circle class="st4" cx="1052.5" cy="546.8" r="4.4"/>
	<circle class="st4" cx="1052.5" cy="546.8" r="4.4"/>
	<circle class="st4" cx="549.5" cy="841.8" r="4.4"/>
	<circle class="st4" cx="312.1" cy="708.7" r="4.4"/>
	<circle class="st4" cx="549.5" cy="841.8" r="4.4"/>
	<circle class="st4" cx="194.8" cy="509.8" r="4.4"/>
	<circle class="st4" cx="244.6" cy="580.7" r="4.4"/>
	<circle class="st4" cx="244.6" cy="580.7" r="4.4"/>
	<circle class="st4" cx="312.1" cy="708.7" r="4.4"/>
	<circle class="st4" cx="177.5" cy="432.9" r="4.4"/>
	<circle class="st4" cx="194.8" cy="509.8" r="4.4"/>
	<circle class="st4" cx="177.4" cy="326.1" r="4.4"/>
	<circle class="st4" cx="177.5" cy="432.9" r="4.4"/>
</g>
<g id="Layer_7">
	<g>
		<g>
			<g>
				<path class="st5" d="M506.1,403.1c-2,0-3.6-0.6-4.8-1.7c-1.2-1.2-1.8-2.7-1.8-4.7v-29.1c0-1.4,0.6-1.5,1.1-1.5
					c0.3,0,0.9,0,0.9,1.7v28.7c0,3,1.8,4.5,5.4,4.5h17.6c0.8,0,1.2-0.5,1.2-1.2c0-0.9-0.6-1.5-1.5-1.5h-18.6c-0.3,0-1.4,0-1.4-2
					v-26.4c0-1.2,0.3-2.1,0.9-2.9c0.6-0.9,1.5-1.2,2.6-1.2s2,0.3,2.6,1.1c0.6,0.8,0.9,1.5,0.9,2.7v24.2c0,0.3-0.2,0.8-1.2,0.9
					c-1.1-0.2-1.2-0.6-1.2-1.1l0.2-23.7c0-0.9-0.5-1.5-1.4-1.5c-0.5,0-1.2,0.2-1.2,1.4v26.4h18c1.1,0,2,0.3,2.7,0.9s1.1,1.5,1.1,2.6
					s-0.5,2-1.2,2.6c-0.8,0.6-1.7,0.9-2.9,0.9L506.1,403.1z"/>
				<path class="st5" d="M534.3,423.6c-1.1,0-2-0.3-2.6-1.1c-0.6-0.8-0.9-1.5-0.9-2.7v-24.2c0-0.2,0-0.5,0.2-0.6
					c0.2-0.2,0.6-0.3,0.9-0.3c0.9,0,1.1,0.6,1.1,1.1v23.7c0,0.9,0.6,1.5,1.5,1.5c0.3,0,1.1-0.2,1.1-1.4v-26.4h-18
					c-1.1,0-2-0.3-2.7-0.9c-0.8-0.6-1.1-1.5-1.1-2.6s0.3-2,1.2-2.6c0.8-0.6,1.7-0.9,2.9-0.9h17.9c2.1,0,3.6,0.6,4.8,1.7
					c1.2,1.1,1.8,2.7,1.8,4.7v29.1c0,1.4-0.6,1.5-1.1,1.5c-0.3,0-0.6-0.2-0.8-0.3c-0.2-0.3-0.3-0.8-0.3-1.2V393c0-3-1.8-4.5-5.4-4.5
					h-17.6c-0.8,0-1.2,0.5-1.2,1.2c0,0.9,0.6,1.5,1.5,1.5h18.6c0.5,0,0.8,0.2,0.9,0.3c0.3,0.3,0.5,0.9,0.5,1.7v26.4
					c0,1.2-0.3,2.1-0.9,2.9C536.3,423.2,535.5,423.6,534.3,423.6L534.3,423.6z"/>
				<path class="st5" d="M515.6,383.7c-0.5,0-0.9-0.5-0.9-0.9c0-0.5,0.5-0.9,0.9-0.9h26.9c0.5,0,0.9,0.5,0.9,0.9
					c0,0.5-0.5,0.9-0.9,0.9H515.6z"/>
			</g>
			<g>
				<path class="st5" d="M566.6,404.9v-14.3c0-0.2,0.2-0.3,0.3-0.3h2.1v14.9c0,1.1,0.9,2,2,2h8c0.2,0,0.3,0.2,0.3,0.3v1.8H571
					C568.6,409.4,566.6,407.3,566.6,404.9z"/>
				<path class="st5" d="M594.4,408.9v-18.6h2.1c0.2,0,0.3,0.2,0.3,0.3v18.6h-2.1C594.5,409.4,594.4,409.2,594.4,408.9z"/>
				<path class="st5" d="M615.7,390.8l6.3,11.6l6.3-11.6c0.2-0.3,0.5-0.5,0.8-0.5h1.8c0.2,0,0.3,0.2,0.3,0.3v18.6H629
					c-0.2,0-0.3-0.2-0.3-0.3v-14.7l-5.3,10.1c-0.2,0.2-0.3,0.3-0.5,0.3h-1.8c-0.2,0-0.5-0.2-0.5-0.3l-5.3-10.1v14.7
					c0,0.2-0.2,0.3-0.3,0.3h-2.1v-18.6c0-0.2,0.2-0.3,0.3-0.3h1.8C615.2,390.3,615.5,390.5,615.7,390.8z"/>
				<path class="st5" d="M649.1,394.4v4.4c0.3,0,9.6,0,9.6,0v1.8c0,0.2-0.2,0.3-0.3,0.3h-9.3v4.4c0,1.1,0.9,2,2,2h8.3
					c0.2,0,0.3,0.2,0.3,0.3v1.8h-8.6c-2.4,0-4.4-2-4.4-4.4v-10.4c0-2.4,2-4.4,4.4-4.4h8.6v1.8c0,0.2-0.2,0.3-0.3,0.3h-8.3
					C650,392.4,649.1,393.3,649.1,394.4z"/>
				<path class="st5" d="M687.4,390.3v1.8c0,0.2-0.2,0.3-0.3,0.3h-5.4v16.5c0,0.2-0.2,0.3-0.3,0.3h-2.1v-16.8h-5.7v-1.8
					c0-0.2,0.2-0.3,0.3-0.3H687.4z"/>
				<path class="st5" d="M704.4,400.7v8.4c0,0.2-0.2,0.3-0.3,0.3H702v-17.6c0-0.8,0.6-1.5,1.5-1.5h8c2.4,0,4.4,1.5,4.4,4.1v2.4
					c0,2.3-1.7,3.5-3.5,3.9l4.1,8.6h-2.3c-0.2,0-0.5-0.2-0.5-0.3l-3.9-8.1h-3.3h-0.8C705.1,400.8,704.7,400.8,704.4,400.7
					L704.4,400.7z M711.4,398.7c1.1,0,2-0.9,2-2v-2.4c0-1.1-0.9-2-2-2h-6.6c-0.3,0-0.5,0.3-0.5,0.5v5.3c0,0.3,0.2,0.5,0.5,0.5h6.6
					V398.7z"/>
				<path class="st5" d="M775.9,390.3l-3.9,9.9c-0.3,0.8-0.9,1.5-1.8,1.5H769v7.4c0,0.2-0.2,0.3-0.3,0.3h-2.1v-7.7h-1.1
					c-1.1,0-1.7-0.6-2-1.4l-3.9-9.9h2.3c0.2,0,0.3,0.2,0.5,0.3l3.2,8.3c0.2,0.3,0.5,0.5,0.6,0.5h3.2c0.3,0,0.6-0.2,0.6-0.5l3.2-8.3
					c0-0.2,0.3-0.3,0.5-0.3h2.4V390.3z"/>
				<path class="st5" d="M733.9,404.1l-1.7,5c0,0.2-0.3,0.3-0.5,0.3h-2.1l6.2-17.6c0.3-0.9,1.1-1.4,2-1.4h2c0.9,0,1.7,0.6,2,1.4
					l6.2,17.6h-2.1c-0.2,0-0.5-0.2-0.5-0.3l-1.7-5h-5H733.9z M743.1,402l-3.2-9.2c0-0.2-0.3-0.3-0.5-0.3h-1.2
					c-0.2,0-0.5,0.2-0.5,0.3l-3.2,9.2h4.2H743.1z"/>
			</g>
		</g>
	</g>
</g>
<g id="Layer_2" class="st0">
	<rect x="2746.9" y="200.7" class="st6" width="874.3" height="746.2"/>
</g>
<g id="Layer_3">
</g>
<g id="Layer_5">
</g>
<g id="Layer_1_1_" class="st0">
	
		<image style="display:inline;overflow:visible;enable-background:new    ;" width="972" height="830" xlink:href="FD15B7FA.jpeg"  transform="matrix(0.9999 0 0 0.9999 2720.0898 109.7159)">
	</image>
</g>
</svg>
