<?xml version="1.0" encoding="UTF-8"?>
<svg width="795px" height="569px" viewBox="0 0 795 569" version="1.1" xmlns="http://www.w3.org/2000/svg" xmlns:xlink="http://www.w3.org/1999/xlink">
    <!-- Generator: Sketch 48.2 (47327) - http://www.bohemiancoding.com/sketch -->
    <title>MacBook@0.5x</title>
    <desc>Created with Sketch.</desc>
    <defs>
        <filter x="-21.4%" y="-296.0%" width="142.9%" height="692.0%" filterUnits="objectBoundingBox" id="filter-1">
            <feGaussianBlur stdDeviation="3.061617e-15 50" in="SourceGraphic"></feGaussianBlur>
        </filter>
        <rect id="path-2" x="0" y="0" width="572.669683" height="400.361991" rx="34"></rect>
        <filter x="-22.0%" y="-26.5%" width="144.0%" height="162.9%" filterUnits="objectBoundingBox" id="filter-3">
            <feOffset dx="0" dy="10" in="SourceAlpha" result="shadowOffsetOuter1"></feOffset>
            <feGaussianBlur stdDeviation="15" in="shadowOffsetOuter1" result="shadowBlurOuter1"></feGaussianBlur>
            <feColorMatrix values="0 0 0 0 0.203921569   0 0 0 0 0.247058824   0 0 0 0 0.294117647  0 0 0 0.06 0" type="matrix" in="shadowBlurOuter1" result="shadowMatrixOuter1"></feColorMatrix>
            <feOffset dx="0" dy="10" in="SourceAlpha" result="shadowOffsetOuter2"></feOffset>
            <feGaussianBlur stdDeviation="30" in="shadowOffsetOuter2" result="shadowBlurOuter2"></feGaussianBlur>
            <feColorMatrix values="0 0 0 0 0.203921569   0 0 0 0 0.247058824   0 0 0 0 0.294117647  0 0 0 0.08 0" type="matrix" in="shadowBlurOuter2" result="shadowMatrixOuter2"></feColorMatrix>
            <feMorphology radius="0.5" operator="dilate" in="SourceAlpha" result="shadowSpreadOuter3"></feMorphology>
            <feOffset dx="0" dy="0" in="shadowSpreadOuter3" result="shadowOffsetOuter3"></feOffset>
            <feColorMatrix values="0 0 0 0 0.203921569   0 0 0 0 0.247058824   0 0 0 0 0.294117647  0 0 0 0.02 0" type="matrix" in="shadowOffsetOuter3" result="shadowMatrixOuter3"></feColorMatrix>
            <feMerge>
                <feMergeNode in="shadowMatrixOuter1"></feMergeNode>
                <feMergeNode in="shadowMatrixOuter2"></feMergeNode>
                <feMergeNode in="shadowMatrixOuter3"></feMergeNode>
            </feMerge>
        </filter>
        <rect id="path-4" x="22.8054299" y="30.4072398" width="527.058824" height="329.411765"></rect>
        <filter x="-0.2%" y="-0.3%" width="100.4%" height="100.6%" filterUnits="objectBoundingBox" id="filter-5">
            <feGaussianBlur stdDeviation="1" in="SourceAlpha" result="shadowBlurInner1"></feGaussianBlur>
            <feOffset dx="0" dy="0" in="shadowBlurInner1" result="shadowOffsetInner1"></feOffset>
            <feComposite in="shadowOffsetInner1" in2="SourceAlpha" operator="arithmetic" k2="-1" k3="1" result="shadowInnerInner1"></feComposite>
            <feColorMatrix values="0 0 0 0 0.203921569   0 0 0 0 0.247058824   0 0 0 0 0.294117647  0 0 0 0.2 0" type="matrix" in="shadowInnerInner1"></feColorMatrix>
        </filter>
        <rect id="path-6" x="114.027149" y="0" width="471.312217" height="7.60180995" rx="3.80090498"></rect>
        <filter x="-26.5%" y="-1381.3%" width="153.0%" height="3388.7%" filterUnits="objectBoundingBox" id="filter-7">
            <feOffset dx="0" dy="10" in="SourceAlpha" result="shadowOffsetOuter1"></feOffset>
            <feGaussianBlur stdDeviation="15" in="shadowOffsetOuter1" result="shadowBlurOuter1"></feGaussianBlur>
            <feComposite in="shadowBlurOuter1" in2="SourceAlpha" operator="out" result="shadowBlurOuter1"></feComposite>
            <feColorMatrix values="0 0 0 0 0.203921569   0 0 0 0 0.247058824   0 0 0 0 0.294117647  0 0 0 0.06 0" type="matrix" in="shadowBlurOuter1" result="shadowMatrixOuter1"></feColorMatrix>
            <feOffset dx="0" dy="10" in="SourceAlpha" result="shadowOffsetOuter2"></feOffset>
            <feGaussianBlur stdDeviation="30" in="shadowOffsetOuter2" result="shadowBlurOuter2"></feGaussianBlur>
            <feComposite in="shadowBlurOuter2" in2="SourceAlpha" operator="out" result="shadowBlurOuter2"></feComposite>
            <feColorMatrix values="0 0 0 0 0.203921569   0 0 0 0 0.247058824   0 0 0 0 0.294117647  0 0 0 0.08 0" type="matrix" in="shadowBlurOuter2" result="shadowMatrixOuter2"></feColorMatrix>
            <feMerge>
                <feMergeNode in="shadowMatrixOuter1"></feMergeNode>
                <feMergeNode in="shadowMatrixOuter2"></feMergeNode>
            </feMerge>
        </filter>
        <linearGradient x1="50%" y1="-2.48949813e-15%" x2="50%" y2="100%" id="linearGradient-8">
            <stop stop-color="#F7F7F9" offset="0%"></stop>
            <stop stop-color="#ECEDF0" offset="100%"></stop>
        </linearGradient>
        <path d="M0.00144267006,0 L699.367959,0 L699.367959,3.74274583 C699.367959,3.74274583 667.930814,10.372241 647.422257,11.8520285 C626.913701,13.331816 552.399633,14.3471923 552.399633,14.3471923 L146.969768,14.3471923 C146.969768,14.3471923 104.92275,15.6744642 51.947144,11.8520285 C-1.02846236,8.0295927 0.00144267006,3.74274583 0.00144267006,3.74274583 L0.00144267006,0 Z" id="path-9"></path>
        <filter x="-18.3%" y="-741.2%" width="136.6%" height="1857.0%" filterUnits="objectBoundingBox" id="filter-10">
            <feOffset dx="0" dy="10" in="SourceAlpha" result="shadowOffsetOuter1"></feOffset>
            <feGaussianBlur stdDeviation="15" in="shadowOffsetOuter1" result="shadowBlurOuter1"></feGaussianBlur>
            <feColorMatrix values="0 0 0 0 0.203921569   0 0 0 0 0.247058824   0 0 0 0 0.294117647  0 0 0 0.06 0" type="matrix" in="shadowBlurOuter1" result="shadowMatrixOuter1"></feColorMatrix>
            <feOffset dx="0" dy="10" in="SourceAlpha" result="shadowOffsetOuter2"></feOffset>
            <feGaussianBlur stdDeviation="30" in="shadowOffsetOuter2" result="shadowBlurOuter2"></feGaussianBlur>
            <feColorMatrix values="0 0 0 0 0.203921569   0 0 0 0 0.247058824   0 0 0 0 0.294117647  0 0 0 0.08 0" type="matrix" in="shadowBlurOuter2" result="shadowMatrixOuter2"></feColorMatrix>
            <feMorphology radius="0.5" operator="dilate" in="SourceAlpha" result="shadowSpreadOuter3"></feMorphology>
            <feOffset dx="0" dy="0" in="shadowSpreadOuter3" result="shadowOffsetOuter3"></feOffset>
            <feGaussianBlur stdDeviation="1" in="shadowOffsetOuter3" result="shadowBlurOuter3"></feGaussianBlur>
            <feColorMatrix values="0 0 0 0 0.203921569   0 0 0 0 0.247058824   0 0 0 0 0.294117647  0 0 0 0.02 0" type="matrix" in="shadowBlurOuter3" result="shadowMatrixOuter3"></feColorMatrix>
            <feMerge>
                <feMergeNode in="shadowMatrixOuter1"></feMergeNode>
                <feMergeNode in="shadowMatrixOuter2"></feMergeNode>
                <feMergeNode in="shadowMatrixOuter3"></feMergeNode>
            </feMerge>
        </filter>
        <linearGradient x1="100%" y1="50%" x2="0%" y2="50%" id="linearGradient-11">
            <stop stop-color="#EFF0F2" offset="0%"></stop>
            <stop stop-color="#FFFFFF" offset="32.1657577%"></stop>
            <stop stop-color="#FFFFFF" offset="66.3472877%"></stop>
            <stop stop-color="#ECEDF0" offset="100%"></stop>
        </linearGradient>
        <path d="M282.533937,0 L416.832579,0 L416.832579,4.11764706 C416.832579,4.11764706 415.618737,5.18911338 397.828054,5.38461538 C380.037372,5.58011739 319.328981,5.59440925 301.538462,5.38461538 C283.747942,5.17482152 282.533937,3.80090498 282.533937,3.80090498 L282.533937,0 Z" id="path-12"></path>
    </defs>
    <g id="Product-Page-#Ace" stroke="none" stroke-width="1" fill="none" fill-rule="evenodd" transform="translate(-645.000000, -201.000000)">
        <g id="MacBook" transform="translate(695.000000, 250.000000)">
            <polygon id="shadow" fill-opacity="0.06" fill="#343F4B" filter="url(#filter-1)" points="0 388.325792 699.366516 388.325792 528.325792 439.004525 171.040724 439.004525"></polygon>
            <g id="display" transform="translate(63.348416, 0.000000)">
                <g id="display-panel">
                    <use fill="black" fill-opacity="1" filter="url(#filter-3)" xlink:href="#path-2"></use>
                    <use fill="#FDFEFF" fill-rule="evenodd" xlink:href="#path-2"></use>
                </g>
                <g id="screenshort">
                    <use fill="#ECEDF0" fill-rule="evenodd" xlink:href="#path-4"></use>
                    <use fill="black" fill-opacity="1" filter="url(#filter-5)" xlink:href="#path-4"></use>
                </g>
            </g>
            <g id="panel" transform="translate(0.000000, 388.325792)">
                <g id="shadow">
                    <use fill="black" fill-opacity="1" filter="url(#filter-7)" xlink:href="#path-6"></use>
                    <use fill-opacity="0" fill="#FFFFFF" fill-rule="evenodd" xlink:href="#path-6"></use>
                </g>
                <g>
                    <use fill="black" fill-opacity="1" filter="url(#filter-10)" xlink:href="#path-9"></use>
                    <use fill="url(#linearGradient-8)" fill-rule="evenodd" xlink:href="#path-9"></use>
                </g>
                <g id="border">
                    <g id="center">
                        <use fill="url(#linearGradient-11)" xlink:href="#path-12"></use>
                        <use fill-opacity="0.5" fill="#F3F4F6" xlink:href="#path-12"></use>
                    </g>
                    <rect id="left" fill="#FDFDFD" x="0" y="0" width="282.533937" height="3.80090498"></rect>
                    <rect id="right" fill="#FDFDFD" x="416.832579" y="0" width="282.533937" height="3.80090498"></rect>
                </g>
            </g>
        </g>
    </g>
</svg>